%YAML 1.1
%TAG !u! tag:unity3d.com,2011:
--- !u!1 &2240293707147930606
GameObject:
  m_ObjectHideFlags: 0
  m_CorrespondingSourceObject: {fileID: 0}
  m_PrefabInstance: {fileID: 0}
  m_PrefabAsset: {fileID: 0}
  serializedVersion: 6
  m_Component:
  - component: {fileID: 2270491068072157733}
  - component: {fileID: 1973327947844493972}
  m_Layer: 0
  m_Name: AI_WolfHowl
  m_TagString: Untagged
  m_Icon: {fileID: 0}
  m_NavMeshLayer: 0
  m_StaticEditorFlags: 0
  m_IsActive: 1
--- !u!4 &2270491068072157733
Transform:
  m_ObjectHideFlags: 0
  m_CorrespondingSourceObject: {fileID: 0}
  m_PrefabInstance: {fileID: 0}
  m_PrefabAsset: {fileID: 0}
  m_GameObject: {fileID: 2240293707147930606}
  m_LocalRotation: {x: -0, y: -0, z: -0, w: 1}
  m_LocalPosition: {x: -9.2719, y: -1.8910813, z: -0.4393993}
  m_LocalScale: {x: 1, y: 1, z: 1}
  m_Children: []
  m_Father: {fileID: 0}
  m_RootOrder: 0
  m_LocalEulerAnglesHint: {x: 0, y: 0, z: 0}
--- !u!114 &1973327947844493972
MonoBehaviour:
  m_ObjectHideFlags: 0
  m_CorrespondingSourceObject: {fileID: 0}
  m_PrefabInstance: {fileID: 0}
  m_PrefabAsset: {fileID: 0}
  m_GameObject: {fileID: 2240293707147930606}
  m_Enabled: 1
  m_EditorHideFlags: 0
  m_Script: {fileID: 11500000, guid: b13a0026ad51c164691e4fa86ad51a57, type: 3}
  m_Name: 
  m_EditorClassIdentifier: 
  cantripOptions: []
  skillOptions:
  - condition:
      type: 4
      amount: 0
      range: 0
      turns: 2
    targeting: 5
    skill: {fileID: 11400000, guid: 8b81164405fa5f040a561ecb891c69cb, type: 2}
  - condition:
      type: 0
      amount: 0.5
      range: 0
      turns: 0
    targeting: 3
    skill: {fileID: 11400000, guid: 2579089ba98cfbc4b950e01454416199, type: 2}
