%YAML 1.1
%TAG !u! tag:unity3d.com,2011:
--- !u!114 &1565906955873133962
MonoBehaviour:
  m_ObjectHideFlags: 0
  m_CorrespondingSourceObject: {fileID: 0}
  m_PrefabInstance: {fileID: 0}
  m_PrefabAsset: {fileID: 0}
  m_GameObject: {fileID: 4605586191610429686}
  m_Enabled: 1
  m_EditorHideFlags: 0
  m_Script: {fileID: 11500000, guid: 9db2d52e556357d4f9486a77dcdfcec4, type: 3}
  m_Name: 
  m_EditorClassIdentifier: 
  portrait: {fileID: 21300000, guid: 98b396207f38b2146985cd2b56f02891, type: 3}
  spriteSheet:
  - {fileID: 6473749469326899892, guid: 423b694c5194e31478912b555405b0b9, type: 3}
  - {fileID: -1546394295126653135, guid: 423b694c5194e31478912b555405b0b9, type: 3}
  - {fileID: -933202965679089397, guid: 423b694c5194e31478912b555405b0b9, type: 3}
  - {fileID: 6774034772838109156, guid: 423b694c5194e31478912b555405b0b9, type: 3}
  - {fileID: -1787160145581779745, guid: 423b694c5194e31478912b555405b0b9, type: 3}
  - {fileID: 5268573523761856738, guid: 423b694c5194e31478912b555405b0b9, type: 3}
  - {fileID: 8298302802365621125, guid: 423b694c5194e31478912b555405b0b9, type: 3}
  - {fileID: 2367356011207848679, guid: 423b694c5194e31478912b555405b0b9, type: 3}
  - {fileID: 8167919488677112397, guid: 423b694c5194e31478912b555405b0b9, type: 3}
  - {fileID: 2107671663370263305, guid: 423b694c5194e31478912b555405b0b9, type: 3}
  - {fileID: 5915893659911287363, guid: 423b694c5194e31478912b555405b0b9, type: 3}
  - {fileID: 5646013282024972132, guid: 423b694c5194e31478912b555405b0b9, type: 3}
  - {fileID: 7376247230208463497, guid: 423b694c5194e31478912b555405b0b9, type: 3}
  - {fileID: 5950634258621381717, guid: 423b694c5194e31478912b555405b0b9, type: 3}
  - {fileID: -40572363698615047, guid: 423b694c5194e31478912b555405b0b9, type: 3}
  - {fileID: 8771863019992730393, guid: 423b694c5194e31478912b555405b0b9, type: 3}
  - {fileID: -6553660169387184618, guid: 423b694c5194e31478912b555405b0b9, type: 3}
  - {fileID: -3675767691092806204, guid: 423b694c5194e31478912b555405b0b9, type: 3}
  - {fileID: 1444614404169699859, guid: 423b694c5194e31478912b555405b0b9, type: 3}
  - {fileID: 1267169496163381229, guid: 423b694c5194e31478912b555405b0b9, type: 3}
  - {fileID: 7642206265908709736, guid: 423b694c5194e31478912b555405b0b9, type: 3}
  - {fileID: 3985522504791742659, guid: 423b694c5194e31478912b555405b0b9, type: 3}
  - {fileID: -3145247333626086261, guid: 423b694c5194e31478912b555405b0b9, type: 3}
  - {fileID: 821377727458624477, guid: 423b694c5194e31478912b555405b0b9, type: 3}
  - {fileID: -3478103791421277729, guid: 423b694c5194e31478912b555405b0b9, type: 3}
  - {fileID: -8975057308405817613, guid: 423b694c5194e31478912b555405b0b9, type: 3}
  - {fileID: 6984155412600724781, guid: 423b694c5194e31478912b555405b0b9, type: 3}
  - {fileID: 1041793913852202407, guid: 423b694c5194e31478912b555405b0b9, type: 3}
--- !u!1001 &5994097629275559884
PrefabInstance:
  m_ObjectHideFlags: 0
  serializedVersion: 2
  m_Modification:
    m_TransformParent: {fileID: 0}
    m_Modifications:
    - target: {fileID: 840387572622227038, guid: 2aca55cba0405304da37d2010e830cc6,
        type: 3}
      propertyPath: id
      value: 13
      objectReference: {fileID: 0}
    - target: {fileID: 1181484967659924582, guid: 2aca55cba0405304da37d2010e830cc6,
        type: 3}
      propertyPath: uniqueSprite
      value: 
      objectReference: {fileID: 1565906955873133962}
    - target: {fileID: 4092112752939663346, guid: 2aca55cba0405304da37d2010e830cc6,
        type: 3}
      propertyPath: m_RootOrder
      value: 0
      objectReference: {fileID: 0}
    - target: {fileID: 4092112752939663346, guid: 2aca55cba0405304da37d2010e830cc6,
        type: 3}
      propertyPath: m_LocalPosition.x
      value: 0
      objectReference: {fileID: 0}
    - target: {fileID: 4092112752939663346, guid: 2aca55cba0405304da37d2010e830cc6,
        type: 3}
      propertyPath: m_LocalPosition.y
      value: 0
      objectReference: {fileID: 0}
    - target: {fileID: 4092112752939663346, guid: 2aca55cba0405304da37d2010e830cc6,
        type: 3}
      propertyPath: m_LocalPosition.z
      value: 0
      objectReference: {fileID: 0}
    - target: {fileID: 4092112752939663346, guid: 2aca55cba0405304da37d2010e830cc6,
        type: 3}
      propertyPath: m_LocalRotation.w
      value: 1
      objectReference: {fileID: 0}
    - target: {fileID: 4092112752939663346, guid: 2aca55cba0405304da37d2010e830cc6,
        type: 3}
      propertyPath: m_LocalRotation.x
      value: 0
      objectReference: {fileID: 0}
    - target: {fileID: 4092112752939663346, guid: 2aca55cba0405304da37d2010e830cc6,
        type: 3}
      propertyPath: m_LocalRotation.y
      value: 0
      objectReference: {fileID: 0}
    - target: {fileID: 4092112752939663346, guid: 2aca55cba0405304da37d2010e830cc6,
        type: 3}
      propertyPath: m_LocalRotation.z
      value: 0
      objectReference: {fileID: 0}
    - target: {fileID: 4092112752939663346, guid: 2aca55cba0405304da37d2010e830cc6,
        type: 3}
      propertyPath: m_LocalEulerAnglesHint.x
      value: 0
      objectReference: {fileID: 0}
    - target: {fileID: 4092112752939663346, guid: 2aca55cba0405304da37d2010e830cc6,
        type: 3}
      propertyPath: m_LocalEulerAnglesHint.y
      value: 0
      objectReference: {fileID: 0}
    - target: {fileID: 4092112752939663346, guid: 2aca55cba0405304da37d2010e830cc6,
        type: 3}
      propertyPath: m_LocalEulerAnglesHint.z
      value: 0
      objectReference: {fileID: 0}
    - target: {fileID: 7837675348976817978, guid: 2aca55cba0405304da37d2010e830cc6,
        type: 3}
      propertyPath: m_Name
      value: pf_benny
      objectReference: {fileID: 0}
    m_RemovedComponents: []
  m_SourcePrefab: {fileID: 100100000, guid: 2aca55cba0405304da37d2010e830cc6, type: 3}
--- !u!1 &4605586191610429686 stripped
GameObject:
  m_CorrespondingSourceObject: {fileID: 7837675348976817978, guid: 2aca55cba0405304da37d2010e830cc6,
    type: 3}
  m_PrefabInstance: {fileID: 5994097629275559884}
  m_PrefabAsset: {fileID: 0}
