STRING ID	DESCRIPTION	ENGLISH
LANGUAGE_NAME_EN	Language name in english	English
	Don't translate row	MISSING STRING
TUTORIAL_COMBAT_LABEL		Combat
TUTORIAL_COMBAT_TEXT		Battles are turn-based. Every character on their turn can <color=#eec39a>Move</color> once and take one <color=#eec39a>Action</color> (<color=#eec39a>Attack</color>, <color=#eec39a>Skill</color>, <color=#eec39a>Item</color>). 
TUTORIAL_ACTION_LABEL		Actions
TUTORIAL_ACTION_TEXT		Each <color=#eec39a>action</color> cost a certain amount of <color=#eec39a>Time Units (TU)</color>, where the higher the <color=#eec39a>TU</color> cost, the longer it will take for your next turn to come around. Basic attacks cost 100 <color=#eec39a>TU</color>.
TUTORIAL_MANA_LABEL		Mana
TUTORIAL_MANA_TEXT		<color=#5fcde4>Mana</color> is used to cast certain skills. Each character generates <color=#eec39a>one</color> <color=#5fcde4>Mana</color> per turn. <color=#5fcde4>Mana</color> is shared between allies. How much <color=#5fcde4>Mana</color> you currently have is shown on the right side of the screen.
TUTORIAL_ITEM_LABEL		Item
TUTORIAL_ITEM_TEXT		Each <color=#eec39a>Item</color> can be used a certain number of times per battle. A character can only use <color=#eec39a>Items</color> that have been equipped before battle. Item uses are refilled after every battle.
TUTORIAL_CLASS_LABEL		Classes
TUTORIAL_CLASS_TEXT		Each character can set a primary and secondary <color=#eec39a>Class</color>. These can be changed at any time. Each character's primary <color=#eec39a>Class</color> will gain <color=#eec39a>Rank</color> after battles. As a character's class <color=#eec39a>Rank</color> goes up, they gain access to new <color=#eec39a>Abilities</color> shown on the <color=#eec39a>Ability</color> tree to the left.
TUTORIAL_ABILITY_LABEL		Class Abilities
TUTORIAL_ABILITY_TEXT		This character now has a <color=#eec39a>Rank</color> 2 class! At each new class <color=#eec39a>Rank</color>, you can choose to acquire one of two new <color=#eec39a>Abilities</color>. The choice may be changed at anytime.
TUTORIAL_WORLD_MAP_LABEL		World Map
TUTORIAL_WORLD_MAP_TEXT		Click on any location on the <color=#eec39a>World Map</color> to move to it. Any locations for currently active <color=#eec39a>Jobs</color> will be marked with an exclamation.
TUTORIAL_UNIT_PLACEMENT		Party Placement
TUTORIAL_UNIT_PLACEMENT_TEXT		Before battles, you can choose the positions of your characters in a small starting area.
TUTORIAL_PUB_TEXT	This tutorial is spoken as dialogue by one of the characters in game	Let's head back to town and check out the Pub to find more jobs.
HERO_VICTORY_DEFEAT_ALL	These are victory and lose conditions for missions	Defeat all enemies
HERO_VICTORY_DEFEAT_ANY		Defeat any enemy
HERO_VICTORY_DEFEAT_TARGET		Defeat
VILLAIN_VICTORY_DEFEAT_ALL		All player characters are defeated
VILLAIN_VICTORY_DEFEAT_ANY		Any player characters are defeated
VILLAIN_VICTORY_DEFEAT_TARGET		is defeated
LOCATION_NAME_WHISPERING_WOODS	Names of places in the game	Whispering Woods
LOCATION_NAME_TRADERS_WAY		Trader's Way
LOCATION_NAME_MAPLE_FARMS		Maple Farms
LOCATION_NAME_ALVISTA_MINES		Alvista Mines
LOCATION_NAME_RIVERIA		Riveria
CLASS_NOT_IN_DEMO	Text to show that character class is not available for the demo version	Not in Demo
CLASS_NOT_IN_DEMO_DESCRIPTION		A lot more classes available in the full version of the game!
CHARACTER_CLASS_WARRIOR	These are character classes and below are their abilities/skills	Warrior
CLASS_DESCRIPTION_WARRIOR		Durable, melee fighter.
WARRIOR_SKILL_MIGHTY_BLOW		Mighty Blow
SKILL_DESCRIPTION_MIGHTY_BLOW		Deal damage with an attack that is more powerful the more HP you currently have.
WARRIOR_ABILITY_COUNTER		Counter
ABILITY_DESCRIPTION_COUNTER		When you are attacked by a weapon, counter with your weapon attack if the aggressor is within range.
WARRIOR_ABILITY_HP_UP		HP Up
ABILITY_DESCRIPTION_HP_UP		Increase Max HP.
WARRIOR_SKILL_CHALLENGE		Challenge
SKILL_DESCRIPTION_CHALLENGE		Applies <color=#DC9042>Taunted</color> to all adjacent enemies.
WARRIOR_ABILITY_VITALITY		Vitality
ABILITY_DESCRIPTION_VITALITY		You permenantly gain <color=#DC9042>Regeneration</color>.
WARRIOR_ABILITY_SHARP_CUT		Sharp Cut
ABILITY_DESCRIPTION_SHARP_CUT		All physical attacks apply a stack of <color=#DC9042>Bleed</color>.
WARRIOR_SKILL_BATTLE_CRY		Battle Cry
SKILL_DESCRIPTION_BATTLE_CRY		Heal <color=#eec39a>25%</color> of your HP, and grants <color=#DC9042>Might</color>.
WARRIOR_ABILITY_QUICK_SLASH		Quick Slash
ABILITY_DESCRIPTION_QUICK_SLASH		Your basic attack is now used as a <color=#DC9042>Cantrip</color>.
CHARACTER_CLASS_ROGUE		Rogue
CLASS_DESCRIPTION_ROGUE		Specializes in <color=#DC9042>Backstab</color> attacks. Highly mobile.
ROGUE_ABILITY_AMBUSH		Ambush
ABILITY_DESCRIPTION_AMBUSH		<color=#DC9042>Backstabs</color> always hit.
ROGUE_SKILL_SNEAK_ATTACK		Sneak Attack
SKILL_DESCRIPTION_SNEAK_ATTACK		Deals massive damage. Can only be used as <color=#DC9042>Backstab</color>.
ROGUE_SKILL_SHADOW_STEP		Shadow Step
SKILL_DESCRIPTION_SHADOW_STEP		Teleport a short distance. <color=#DC9042>Cantrip</color>.
ROGUE_ABILITY_CLOAK_DAGGER		Cloak and Dagger
ABILITY_DESCRIPTION_CLOAK_DAGGER		Grants <color=#DC9042>Might</color> after using <color=#eec39a>Shadow Step</color>.
ROGUE_ABILITY_NIMBLE		Nimble
ABILITY_DESCRIPTION_NIMBLE		Increase move range and evade.
ROGUE_ABILITY_CUTTHROAT		Cut-Throat
ABILITY_DESCRIPTION_CUTTHROAT		<color=#DC9042>Backstab</color> inflicts <color=#DC9042>Mute</color>.
ROGUE_ABILITY_POISON_TIP		Poison Tip
ABILITY_DESCRIPTION_POISON_TIP		<color=#DC9042>Backstab</color> inflicts <color=#DC9042>Poison</color>.
ROGUE_ABILITY_REAPER		Reaper
ABILITY_DESCRIPTION_REAPER		Knocking out a target grants an additional action. Can only activate once per turn.
ROGUE_SKILL_KILLING_BLOW		Killing Blow
SKILL_DESCRIPTION_KILLING_BLOW		Attack that deals more damage for each debuff on the target.
CHARACTER_CLASS_ALCHEMIST		Alchemist
CLASS_DESCRIPTION_ALCHEMIST		Expert at using Items. 
ALCHEMIST_ABILITY_ITEM_THROW		Item Throw
ABILITY_DESCRIPTION_ITEM_THROW		Increase items' use range by 2.
ALCHEMIST_ABILITY_ITEM_MASTER		Item Master
ABILITY_DESCRIPTION_ITEM_MASTER		Items cost 30 TU less to use.
ALCHEMIST_ABILITY_STIMULANT		Stimulant
ABILITY_DESCRIPTION_STIMULANT		Your 'Potion' items also accelerate their target's turn by 40 TU.
ALCHEMIST_ABILITY_SEDATIVE		Sedative
ABILITY_DESCRIPTION_SEDATIVE		Your 'Flask' items also delay their target's turn by 30 TU.
ALCHEMIST_ABILITY_DEEP_POCKETS		Deep Pockets
ABILITY_DESCRIPTION_DEEP_POCKETS		Gain an extra item equipment slot.
ALCHEMIST_ABILITY_POTENT_MIXTURE		Potent Mixture
ABILITY_DESCRIPTION_POTENT_MIXTURE		Your 'Potion' and 'Flask' items heal and deal damage for 33% more. Status effects from consumables last longer.
ALCHEMIST_ABILITY_FAST_ITEMS		Fast Items
ABILITY_DESCRIPTION_FAST_ITEMS		Items are now used as <color=#DC9042>Cantrips</color>.
ALCHEMIST_ABILITY_CHEMIST		Mad Chemist
ABILITY_DESCRIPTION_CHEMIST		Your "Potion" items accelerate their target's turn 40 TU. Your "Flask" items delay their target's turn by 30 TU.
ALCHEMIST_ABILITY_STOCKED_UP		Stocked Up
ABILITY_DESCRIPTION_STOCKED_UP		Your items have 1 extra charge
ALCHEMIST_SKILL_REFILL		Refill
SKILL_DESCRIPTION_REFILL		Recover all charges of your items. <color=#DC9042>Cantrip</color>.
CHARACTER_CLASS_GUARDIAN		Guardian
CLASS_DESCRIPTION_GUARDIAN		Protects allies and generates <color=#DC9042>Barrier</color>.
GUARDIAN_ABILITY_HEAVY_ARMOR		Heavy Armor
ABILITY_DESCRIPTION_HEAVY_ARMOR		Damage taken is decreased 20% if you have any amount of <color=#DC9042>Barrier</color>.
GUARDIAN_ABILITY_RAMPART		Rampart
ABILITY_DESCRIPTION_RAMPART		Inflict <color=#DC9042>Hobble</color> to adjacent enemies at the end of turn.
GUARDIAN_ABILITY_PROTECTOR		Protector of the People
ABILITY_DESCRIPTION_PROTECTOR		If you have any amount of <color=#DC9042>Barrier</color>, redirect all damage taken by adjacent allies to this unit.
GUARDIAN_ABILITY_DEFENSIVE_STANCE		Defensive Stance
ABILITY_DESCRIPTION_DEFENSIVE_STANCE		Gain a small amount of  <color=#DC9042>Barrier</color> at the end of your turn.
GUARDIAN_ABILITY_COURAGEOUS		Courageous
ABILITY_DESCRIPTION_COURAGEOUS		Accelerate turn by 30 TU whenever you take damage.
GUARDIAN_SKILL_SHIELD_BURST		Shield Burst
SKILL_DESCRIPTION_SHIELD_BURST		Deal damage to all adjacent enemies, equal to the amount of <color=#DC9042>Barrier</color> you have. Lose all remaining <color=#DC9042>Barrier</color>. 
GUARDIAN_SKILL_SHIELD_BASH		Shield Bash
SKILL_DESCRIPTION_SHIELD_BASH		Deals a small amount of damage, and delays the target's turn. The more <color=#DC9042>Barrier</color> you have, the longer the target's turn is delayed.
GUARDIAN_SKILL_SHIELDS_UP		Shield Up
SKILL_DESCRIPTION_SHIELDS_UP		Grants a moderate amount of <color=#DC9042>Barrier</color>.
CHARACTER_CLASS_HEXER		Hexer
CLASS_DESCRIPTION_HEXER		Expert at inflicting debuffs
HEXER_ABILITY_UNENDING_CURSE		Unending Curse
ABILITY_DESCRIPTION_UNENDING_CURSE		Debuffs you inflict lasts 2 extra turns.
HEXER_ABILITY_WITHER		Wither
ABILITY_DESCRIPTION_WITHER		When you inflict a debuff, also delay the target's turn by 15 TU.
HEXER_ABILITY_THE_END		The End
ABILITY_DESCRIPTION_THE_END		When any enemy is inflicted with 4 or more debuffs, automatically inflict them with <color=#DC9042>Doom</color>.
HEXER_ABILITY_SADISTIC		Sadistic
ABILITY_DESCRIPTION_SADISTIC		Accelerate your turn progress by 10 TU everytime an enemy takes damage from a debuff.
HEXER_ABILITY_INCURABLE_DISEASE		Undispellable Curse
ABILITY_DESCRIPTION_INCURABLE_DISEASE		Debuffs you inflict cannot be removed. Debuffs will still expire naturally.
HEXER_SKILL_HEX		Hex
SKILL_DESCRIPTION_HEX		Inflict <color=#DC9042>Weak</color> and <color=#DC9042>Vulnerable</color> in a small area.
HEXER_SKILL_BLOODLET		Bloodlet
SKILL_DESCRIPTION_BLOODLET		Deal magic damage that increases for each debuff that the target has, then remove all debuffs from the target. Deals reduced damage if used on an ally.
HEXER_SKILL_CALAMITY		Calamity
SKILL_DESCRIPTION_CALAMITY		Inflict <color=#DC9042>Burn</color>, <color=#DC9042>Poison</color>, and <color=#DC9042>Bleed</color> in a small area.
CHARACTER_CLASS_ABYSSMAGE		Abyss Mage
ABYSSMAGE_SKILL_CONSUME		Consume
CHARACTER_CLASS_ARCHER		Archer
CLASS_DESCRIPTION_ARCHER		Range attacker that takes advantage of high ground.
ARCHER_ABILITY_EAGLE_EYE		Eagle Eye
ABILITY_DESCRIPTION_EAGLE_EYE		Weapon attacks always hit.
ARCHER_ABILITY_FAST_REFLEX		Fast Reflex
ABILITY_DESCRIPTION_FAST_REFLEX		Dodge all non-melee attacks from enemies that are at lower elevation.
ARCHER_ABILITY_PIN_DOWN		Pin Down
ABILITY_DESCRIPTION_PIN_DOWN		Weapon attacks against targets that are at lower elevation inflict <color=#DC9042>Hobble</color>.
ARCHER_ABILITY_SUPRISE_ATTACK		Suprise Attack
ABILITY_DESCRIPTION_SUPRISE_ATTACK		Weapon attack against targets that are at lower elevation delays that unit's turn progress. The amount delay increases with elevation difference.
ARCHER_ABILITY_SNIPER		Sniper
ABILITY_DESCRIPTION_SNIPER		Deal extra damage for how far each tile you are away from your target.
ARCHER_ABILITY_DEATH_FROM_ABOVE		Death From Above
ABILITY_DESCRIPTION_DEATH_FROM_ABOVE		When dealing damage that would leave a your target below 5% of its Max HP, KO them. This HP threshold increases as the elevation difference between this you and the target increases.
ARCHER_SKILL_RAIN_DOWN		Rain Down
SKILL_DESCRIPTION_RAIN_DOWN		Deal physical damage. Damage dealt increases depending on the elevation difference between you and the target.
ARCHER_SKILL_TAKE_AIM		Take Aim
SKILL_DESCRIPTION_TAKE_AIM		Gain <color=#DC9042>Might</color> and <color=#DC9042>Focus</color> for 1 turn. <color=#DC9042>Cantrip</color>.
CHARACTER_CLASS_PRIEST		Priest
CLASS_DESCRIPTION_PRIEST		Specializes in healing and buffing allies.
PRIEST_ABILITY_OVERHEAL		Overheal
ABILITY_DESCRIPTION_OVERHEAL		When you heal any unit to above Max HP, 50% of the overflow is added as <color=#DC9042>Barrier</color>.
PRIEST_SKILL_HEALING		Healing
SKILL_DESCRIPTION_HEALING		Heals in a small area.
PRIEST_ABILITY_DIVINE_PROTECTION		Divine Protection
ABILITY_DESCRIPTION_DIVINE_PROTECTION		When your HP would fall to 0, fall to 1 HP instead. Gain <color=#DC9042>Barrier</color> equal this 50% of your Magic Defense. Can only trigger once per battle.
PRIEST_ABILITY_WARDING_PRAYER		Warding Prayer
ABILITY_DESCRIPTION_WARDING_PRAYER		When you heal any unit, grant them <color=#DC9042>Ward</color>.
PRIEST_ABILITY_HOLY_AURA		Holy Aura
ABILITY_DESCRIPTION_HOLY_AURA		At the end of every turn, heal adjacent units for a small amount.
PRIEST_ABILITY_ANGELIC		Angelic
ABILITY_DESCRIPTION_ANGELIC		10% of Magic Defense is added to all healing.
PRIEST_SKILL_HOLY_WEAPON		Holy Weapon
SKILL_DESCRIPTION_HOLY_WEAPON		Grant <color=#DC9042>Might</color> to nearby allies.
PRIEST_SKILL_MARTYR		Martyr
SKILL_DESCRIPTION_MARTYR		Lose all remaining HP. Nearby allies are massively healed, gain <color=#DC9042>Ward</color> and <color=#DC9042>Regeneration</color>, and accelerate turn progress by 100 TU.
CHARACTER_CLASS_WIZARD	[Noun]	Wizard
CLASS_DESCRIPTION_WIZARD		Casts destructive, high mana cost spells.
WIZARD_ABILITY_SPELL_RANGE_UP		Spell Range Up
ABILITY_DESCRIPTION_SPELL_RANGE_UP		Increase range of magic damage skills.
WIZARD_ABILITY_MEDITATE		Meditate
ABILITY_DESCRIPTION_MEDITATE		If you end turn without taking an action, gain <color=#DC9042>Focus</color> for one turn.
WIZARD_ABILITY_SORCERY		Sorcery
ABILITY_DESCRIPTION_SORCERY		Gain skills: Thunder, Firebomb.
WIZARD_ABILITY_INTENSE_FOCUS		Intense Focus
ABILITY_DESCRIPTION_INTENSE_FOCUS		While under the effects of <color=#DC9042>Focus</color>, attacks cannot miss.
WIZARD_ABILITY_MANA_EFFICIENCY		Mana Efficiency
ABILITY_DESCRIPTION_MANA_EFFICIENCY		All skills cost 1 less <color=#5fcde4>Mana</color>.
WIZARD_ABILITY_MANA_OVERLOAD		Mana Overload
ABILITY_DESCRIPTION_MANA_OVERLOAD		All skills cost 1 additional <color=#5fcde4>Mana</color>. Increase all magic damage dealt.
WIZARD_ABILITY_TURBO_CAST		Turbo Cast
ABILITY_DESCRIPTION_TURBO_CAST		All skills that deal magic damage can now be cast as <color=#DC9042>Cantrip</color>.
WIZARD_SKILL_THUNDER		Thunder
SKILL_THUNDER_DESCRIPTION		Deals magic damage to a single target. Delays the targets turn by 30 <color=#eec39a>TU</color>.
WIZARD_SKILL_FIREBOMB		Firebomb
SKILL_FIREBOMB_DESCRIPTION		Deals magic damage in a small area. Inflicts <color=#DC9042>Burn</color> for 3 turns.
WIZARD_SKILL_ENERGY_VORTEX		Energy Vortex
SKILL_DESCRIPTION_ENERGY_VORTEX		Deals massive magic damage in an area.
CHARACTER_CLASS_WOLF		Wolf
WOLF_SKILL_MAUL		Maul
SKILL_DESCRIPTION_MAUL		Deals damage and inflicts <color=#DC9042>Bleed</color>.
WOLF_SKILL_HOWL		Howl
SKILL_DESCRIPTION_HOWL		Inflict <color=#DC9042>Weak</color> to adjacent enemies.
CHARACTER_CLASS_DAEMONITE		Daemonite
DAEMONITE_SKILL_RUPTURE		Rupture
SKILL_DESCRIPTION_RUPTURE		Deals physical damage to target and inflict <color=#DC9042>Bleed</color>. You heal for a portion of damage dealt.
CHARACTER_CLASS_FIRE_SPRITE	Sprite as in fairy	Fire Sprite
FIRE_SPRITE_SKILL_SELF_DESTRUCT		Self Destruct
SKILL_DESCRIPTION_SELF_DESTRUCT		Lose all remaining HP, and deal massive magic damage and inflict <color=#DC9042>Burn</color> to adjacent enemies.
FIRE_SPRITE_SKILL_IGNITE		Ignite
SKILL_DESCRIPTION_IGNITE		Deal magic damage and inflict <color=#DC9042>Burn</color>.
ABILITY_NONE		<color=#7a7a7a>None</color>
ABILITY_DESCRIPTION_NONE		No ability in this slot.
CONTEXT_CHARACTER_CLASS		Job
CHARACTER_STAT_PHYS_ATTACK	RPG Character Stat	Physical Attack
CHARACTER_STAT_PATK_SHORT	Shortened stat name. Same as unshortened if under 4 characters in translation language	P. Atk.
CHARACTER_STAT_MAGIC_ATTACK	RPG Character Stat	Magic Attack
CHARACTER_STAT_MATK_SHORT	Shortened stat name. Same as unshortened if under 4 characters in translation language	M. Atk.
CHARACTER_STAT_PHYS_DEFENCE	RPG Character Stat	Physical Defence
CHARACTER_STAT_PDEF_SHORT	Shortened stat name. Same as unshortened if under 4 characters in translation language	P. Def.
CHARACTER_STAT_MAGIC_DEFENCE	RPG Character Stat	Magic Defence
CHARACTER_STAT_MDEF_SHORT	Shortened stat name. Same as unshortened if under 4 characters in translation language	M. Def.
CHARACTER_STAT_MOVE	RPG Character Stat	Move
CHARACTER_STAT_JUMP	RPG Character Stat	Jump
CHARACTER_STAT_EVADE		Evade
KEYWORD_BURN		Burn
KEYWORD_INNATE		Innate
KEYWORD_DESCRIPTION_INNATE		Innate class abilities only activate when this class is your primary class.
KEYWORD_DESCRIPTION_BURN		Take damage at the start of the turn. Healing recieved reduced by 50%.
KEYWORD_BARRIER		Barrier
KEYWORD_DESCRIPTION_BARRIER		Temporary HP that can go beyond Max HP.
KEYWORD_POISON		Poison
KEYWORD_DESCRIPTION_POISON		Take damage at the start of the turn. Reduce Phys. Atk stat when under poison.
KEYWORD_CANTRIP		Cantrip
KEYWORD_DESCRIPTION_CANTRIP		Units can take an additional action after using a cantrip. Can only use one <color=#DC9042>Cantrip</color> per turn.
KEYWORD_BACKSTAB		Backstab
KEYWORD_DESCRIPTION_BACKSTAB		Melee attacks made from behind the target.
KEYWORD_HOBBLE		Hobble
KEYWORD_DESCRIPTION_HOBBLE		Movement range reduced by 2.
KEYWORD_SILENCE		Mute
KEYWORD_DESCRIPTION_SILENCE		Cannot use spells.
KEYWORD_BLEED		Bleed
KEYWORD_DESCRIPTION_BLEED		Take damage every turn equal to a percentage of Max HP. This damage increases every turn for up to 3 turns
KEYWORD_TAUNTED		Taunted
KEYWORD_SHORT_TAUNTED	Shorterned version must be less than 5 characters	Taunt
KEYWORD_DESCRIPTION_TAUNTED		Can only target the unit who inflicted this status.
KEYWORD_FOCUS		Focus
KEYWORD_DESCRIPTION_FOCUS		Deal 30% more magic damage. 
KEYWORD_MIGHT		Might
KEYWORD_DESCRIPTION_MIGHT		Deal 30% more physical damage.
KEYWORD_WARD		Ward
KEYWORD_DESCRIPTION_WARD		Reduce all damage taken by 25%.
KEYWORD_WEAK		Weak
KEYWORD_DESCRIPTION_WEAK		Decrease all damage dealt by 25%.
KEYWORD_VULNERABLE		Vulnerable
KEYWORD_SHORT_VULNERABLE		Vuln.
KEYWORD_DESCRIPTION_VULNERABLE		Increase all damage taken by 30%.
KEYWORD_REGENERATION		Regeneration
KEYWORD_SHORT_REGEN	Shorterned version must be less than 5 characters	Regen
KEYWORD_DESCRIPTION_REGENERATION		Heal a small portion of Max HP every turn.
KEYWORD_DOOM		Doom
KEYWORD_DESCRIPTION_DOOM		Take massive damage after 3 turns.
KEYWORD_ITEM		Item
KEYWORD_DESCRIPTION_ITEM		Can be used a certain amount of times per battle. Uses refill after each battle.
SHOP_DIALOGUE_WELCOME	Welcome meessage when entering game shop	Welcome! What can I do for ya?
WEAPONTYPE_SWORD		Sword
WEAPONTYPE_DAGGER		Dagger
WEAPONTYPE_SPEAR		Spear
WEAPONTYPE_AXE		Axe
WEAPONTYPE_STAFF		Staff
WEAPONTYPE_BOW		Bow
ARMORTYPE_CLOTH		Cloth Armor
ARMORTYPE_MEDIUM		Medium Armor
ARMORTYPE_HEAVY		Heavy Armor
WEAPON_IRON_SWORD		Iron Sword
WEAPON_IRON_DAGGER		Iron Dagger
WEAPON_MYTHRIL_DAGGER		Mythril Dagger
DAGGER_DESCRIPTION		Basic attack costs 80 TU.
WEAPON_IRON_SPEAR		Iron Spear
WEAPON_BATTLEAXE		Battleaxe
WEAPON_OAK_BOW		Oak Bow
WEAPON_OAK_STAFF		Oak Staff
WEAPON_BLESSED_STAFF		Blessed Staff
BLESSED_STAFF_DESCRIPTION		Basic attacks heal instead of dealing damage.
WEAPON_DAEMON_CLAWS		Daemon Claws
EQUIPMENT_PLATE_MAIL		Plate Mail
EQUIPMENT_LEATHER_ARMOR		Leather Armor
EQUIPMENT_SIMPLE_ROBE		Simple Robe
EQUIPMENT_BUCKLER		Buckler
EQUIPMENT_BOOTS		Boots
EQUIPMENT_BRACERS		Bracers
EQUIPMENT_CLOAK		Cloak
EQUIPMENT_POCKETWATCH		Strange Watch
POCKETWATCH_DESCRIPTION		If you end turn without taking an action, your next turn comes much sooner.
CONSUMABLE_HEALTH_POTION		Health Potion
HEALTH_POTION_DESCRIPTION		Heal target for 33% its Max HP.
CONSUMABLE_POISON_FLASK		Poison Flask
POISON_FLASK_DESCRIPTION		Deals a small amount of damage. Inflicts <color=#DC9042>Poison</color>.
CONSUMABLE_FIRE_FLASK		Fire Flask
FIRE_FLASK_DESCRIPTION		Deals a small amount of damage. Inflicts <color=#DC9042>Burn</color>.
CONSUMABLE_WOLF_TOOTH		Wolf Tooth
WOLF_TOOTH_DESCRIPTION		Inflicts adjacent enemies with <color=#DC9042>Weak</color>.
CONSUMABLE_BANDAGE		Bandage
BANDAGE_DESCRIPTION		Heal target for 10% of its Max HP and cure <color=#DC9042>Bleed</color>.
CONSUMABLE_FIRE_CORE		Fire Core
GAME_ACTION_MOVE		Move
GAME_ACTION_ATTACK		Attack
GAME_ACTION_SKILL		Skills
GAME_ACTION_ITEM		Items
GAME_ACTION_WAIT		Wait
MISSION_HIGHWAY_ROBBERY		Highway Robbery
MISSION_DESCRIPTION_HIGHWAY_ROBBERY		Roadside muggings have been on the rise! Please help get rid of the bandits staked out at Trader's Way!
MISSION_GIVER_HIGHWAY_ROBBERY		Mack, Sheriff of Riveria
MISSION_FOREST_FIRE		Forest Fire!
MISSION_DESCRIPTION_FOREST_FIRE		Arsonists have been setting fires at Whispering Woods. Need help catching the culprits.
MISSION_GIVER_FOREST_FIRE		Fire Chief Samuel
MISSION_CROP_VANDALS		Crop Vandals
MISSION_DESCRIPTION_CROP_VANDALS		Someone has been sneaking into my farm at night and destroying my crops! Someone help me catch these hooligans!
MISSION_GIVER_CROP_VANDALS		Farmer Jack
MISSION_WORTHY_CHALLENGERS		Challengers Wanted!
MISSION_DESCRIPTION_WORTHY_CHALLENGERS		Our clan is trying to hone our skills through battle! We're looking for tough opponents to skirmish against. Meet us at Trader's Way.
MISSION_GIVER_WORTHY_CHALLENGERS		Sasha, Clan Leader of the Black Boars
MISSION_CULT_KIDNAPPERS		Cult Kidnappers
MISSION_DESCRIPTION_CULT_KIDNAPPERS		Local cult has been kidnapping people from our village! Their hideout is at the abandoned mine to the east. Someone please get rid of them!
MISSION_GIVER_CULT_KIDNAPPERS		Mack, Sheriff of Riveria
PRE_DIALOGUE_AWAKEN_0	Speaker: Main character	Ugh...
PRE_DIALOGUE_AWAKEN_1	Speaker: Main character	It hurts...
PRE_DIALOGUE_AWAKEN_2	(Runa enters and kills one wolf) Speaker: Runa	Are you alright, boy?
PRE_DIALOGUE_AWAKEN_3	(2 more wolves enter) Speaker:  Runa	Boy, form a spiritlink with me if you want to live.
PRE_DIALOGUE_AWAKEN_4	Speaker: Main character	Spiritlink?
PRE_DIALOGUE_AWAKEN_5	Speaker: Runa	There's no time to explain. 
PRE_DIALOGUE_AWAKEN_6	Speaker: Runa, as she starts a prayer	Follow my lead, and accept the oath.
PRE_DIALOGUE_AWAKEN_7	Speaker: Main character	O-okay.
PRE_DIALOGUE_AWAKEN_8	Speaker: Runa	I vow to protect this boy until my dying breath.
PRE_DIALOGUE_AWAKEN_9	Speaker: Runa	Boy, will you swear the same?
PRE_DIALOGUE_AWAKEN_10	Speaker: Main character	I-I swear.
PRE_DIALOGUE_AWAKEN_11	Speaker: Main character	I feel...
PRE_DIALOGUE_AWAKEN_12	Speaker: Runa	Get ready, here they come.
MID_DIALOGUE_AWAKEN_0	(This happens in the middle of the battle) Speaker: Runa	Now that we're spiritlinked you can make use of my mana.
MID_DIALOGUE_AWAKEN_1	Speaker: Runa	So if you possess any magic skills that can make use of it, use them now!
END_DIALOGUE_AWAKEN_0	Speaker: Runa	You don't look like much, but your skills were impressive.
END_DIALOGUE_AWAKEN_1	Speaker: Runa	Where did you learn to fight like that?
END_DIALOGUE_AWAKEN_2	(MC collapses from wounds) Speaker: Main character	I... Ugh...
END_DIALOGUE_AWAKEN_3	Speaker: Runa	Boy, are you okay?
POST_DIALOGUE_AWAKEN_0	Speaker: MC	Ugh...
POST_DIALOGUE_AWAKEN_1	Speaker: MC	Where... am I?
POST_DIALOGUE_AWAKEN_2	Speaker: Ishta	Oh, you're awake.
POST_DIALOGUE_AWAKEN_3	Speaker: Ishta	This is the base of our clan, The White Crows.
POST_DIALOGUE_AWAKEN_4	Speaker: Ishta	You were rescued by our clanmate, Runa.
POST_DIALOGUE_AWAKEN_5	Speaker: Ishta	I'm Ishta, what is your name?
POST_DIALOGUE_AWAKEN_6	Speaker: MC	I...don't know.
POST_DIALOGUE_AWAKEN_7	Speaker: MC	Can't remember...
POST_DIALOGUE_AWAKEN_8	Speaker: Ishta	Is it amnesia? 
POST_DIALOGUE_AWAKEN_9	Speaker: Ishta	It doesn't matter. Runa says you're pretty skilled in a fight.
POST_DIALOGUE_AWAKEN_10	Speaker: Ishta	We only have three clan members, so we could use the extra manpower for our jobs.
POST_DIALOGUE_AWAKEN_11	Speaker: MC	Jobs?
POST_DIALOGUE_AWAKEN_12	Speaker: Ishta	We're a small mercenary clan. Our leader, Bo, finds us dangerous jobs for money.
POST_DIALOGUE_AWAKEN_13	Speaker: Ishta	And now that Runa Spiritlinked with you, you're also Spiritlinked with the rest of the clan.
POST_DIALOGUE_AWAKEN_14	Speaker: Ishta	The oath you took is a divine contract to fight with us. Fight with us or you'll anger the Gods.
POST_DIALOGUE_AWAKEN_15	Speaker: MC	I...
POST_DIALOGUE_AWAKEN_16	(Enter Boe) Speaker: Ishta	Speak of the devil.
POST_DIALOGUE_AWAKEN_17	Speaker: Boe	The new boy's finally awake, huh?
POST_DIALOGUE_AWAKEN_18	Speaker: Ishta	Yes, but he says he can't remember anything, not even his name.
POST_DIALOGUE_AWAKEN_19	Speaker: Boe	Well, we can't have that. Now that you're part of the clan we gotta have a name for ya.
POST_DIALOGUE_AWAKEN_20	(Player chooses name here) Speaker: Boe	How about...
POST_DIALOGUE_AWAKEN_21	Speaker: MC	O-okay.
POST_DIALOGUE_AWAKEN_22	Speaker: Boe	Perfect!
POST_DIALOGUE_AWAKEN_23	Speaker: Boe	Now listen, Runa chose to Spiritlink with you, and now the Gods expect us to protect you with our lives. 
POST_DIALOGUE_AWAKEN_24	Speaker: Boe	I have no faith in the Gods, but I have faith in Runa's decision. 
POST_DIALOGUE_AWAKEN_25	Speaker: Boe	But mercenary work is dangerous. Can I trust in you to fight with us?
POST_DIALOGUE_AWAKEN_26	Speaker: Ishta	You have no where else to go anyways. Work for us if you want to live.
POST_DIALOGUE_AWAKEN_27	Speaker: MC	I...I'll fight.
POST_DIALOGUE_AWAKEN_28	Speaker: Boe	Good. 
POST_DIALOGUE_AWAKEN_29	Speaker: Boe	Now, I got us a new job.
POST_DIALOGUE_AWAKEN_30	Speaker: Boe	Just hunting down some bandits on the highway. Should be easy.
POST_DIALOGUE_AWAKEN_31	Speaker: Ishta	That overconfidence is going to get you killed.
POST_DIALOGUE_AWAKEN_32	Speaker: Boe	If that was the case, I'd have been killed long ago.
POST_DIALOGUE_AWAKEN_33	Speaker: Boe	Now let's get a move on.
PRE_DIALOGUE_HIGHWAY_ROBBERY_0	Speaker: Boe	This is the spot. People have been reportedly getting mugged at these crossroads.
PRE_DIALOGUE_HIGHWAY_ROBBERY_1	Speaker: Boe	Keep your eyes peeled for anyone suspicious.
PRE_DIALOGUE_HIGHWAY_ROBBERY_2	Speaker: Ishta	And what would someone suspicious look like?
PRE_DIALOGUE_HIGHWAY_ROBBERY_3	Speaker: Runa	Someone's coming.
PRE_DIALOGUE_HIGHWAY_ROBBERY_4	(Bandits enter)  Speaker: Boe	I'd say they look pretty suspicious.
PRE_DIALOGUE_HIGHWAY_ROBBERY_5	Speaker: Bandit	Hand over your valuables if you want to live.
PRE_DIALOGUE_HIGHWAY_ROBBERY_6	Speaker: Runa	Boy, stay close to us.
PRE_DIALOGUE_HIGHWAY_ROBBERY_7	Speaker MC	O-okay.
PRE_DIALOGUE_HIGHWAY_ROBBERY_8	Speaker: Ishta	Let's get this over with.
POST_DIALOGUE_HIGHWAY_ROBBERY_0	(After the bandits have been defeated) Speaker: Ishta	These guys were pretty skilled fighters for mere bandits.
POST_DIALOGUE_HIGHWAY_ROBBERY_1	Speaker: Boe	Attacking people is all they do. They were just good at their job.
POST_DIALOGUE_HIGHWAY_ROBBERY_2	(Bandit gets up) Speaker: Bandit	Long live Lady Mae!
POST_DIALOGUE_HIGHWAY_ROBBERY_3	Speaker: Ishta	This guy was still alive, huh?
POST_DIALOGUE_HIGHWAY_ROBBERY_4	(Bandit collapses again) Speaker: Boe	Not for long.
POST_DIALOGUE_HIGHWAY_ROBBERY_5	Speaker: Ishta	Wonder what that was about.
POST_DIALOGUE_HIGHWAY_ROBBERY_6	Speaker: Boe	The guy was probably just losing it. 
POST_DIALOGUE_HIGHWAY_ROBBERY_7	Speaker: Boe	Let's get out of here. A job well done, everyone.
PRE_DIALOGUE_FOREST_FIRE_0	Speaker: Boe	What the-
PRE_DIALOGUE_FOREST_FIRE_1	Speaker: Boe	Runa, you're familiar with forest creatures. What are these things?
PRE_DIALOGUE_FOREST_FIRE_2	Speaker: Runa	Fire sprites. They are usually docile, but will start setting fires when distressed.
PRE_DIALOGUE_FOREST_FIRE_3	Speaker: Ishta	These must be the arsonists we're looking for. Let's get them.
POST_DIALOGUE_FOREST_FIRE_0	Speaker: Runa	It is unlike the sprites to attack humans. There must be disturbances in these woods.
POST_DIALOGUE_FOREST_FIRE_1	Speaker: Runa	We must investigate further.
POST_DIALOGUE_FOREST_FIRE_2	Speaker: Ishta	No, we've done our job. Let's get out of here.
POST_DIALOGUE_FOREST_FIRE_3	Speaker: Boe	Ishta's right. Runa I know your old clan were protectors of these wilds, but this isn't our business. We can't risk finding something dangerous.
POST_DIALOGUE_FOREST_FIRE_4	Speaker: Runa	...alright.
PRE_DIALOGUE_CROP_VANDALS_0	Speaker: Ishta	Guarding this farm gate sure is boring. Wonder when these vandals are going to show up.
PRE_DIALOGUE_CROP_VANDALS_1	Speaker: Runa	I hear someone coming.
PRE_DIALOGUE_CROP_VANDALS_2	Speaker: Ishta	Looks like we've got some Daemonites.
PRE_DIALOGUE_CROP_VANDALS_3	Speaker: MC	Daemonites?
PRE_DIALOGUE_CROP_VANDALS_4	Speaker: Ishta	Humans who try to spiritlink with Daemons to obtain great power. It lets the Daemon inhabit their body.
PRE_DIALOGUE_CROP_VANDALS_5	Speaker: Ishta	Some people's body can't handle it and they end up losing their minds. Seems to be the case for these men.
PRE_DIALOGUE_CROP_VANDALS_6	Speaker: Ishta	I've seen these thing in the Outlands that I grew up in. They're dangerous.
PRE_DIALOGUE_CROP_VANDALS_7	Speaker: Boe	We better be getting paid extra for this.
POST_DIALOGUE_CROP_VANDALS_0	Speaker: Ishta	What are so many Daemonites doing here.
POST_DIALOGUE_CROP_VANDALS_1	Speaker: Ishta	I thought Spiritlinking with Daemons is forbidden by law.
POST_DIALOGUE_CROP_VANDALS_2	Speaker: Boe	It's not exactly as prohibited as you think.
POST_DIALOGUE_CROP_VANDALS_3	Speaker: Ishta	What do you mean by that?
POST_DIALOGUE_CROP_VANDALS_4	Speaker: Boe	A lot of nobles are secretly Daemonites, as well as many of the King's loyal subjects. 
POST_DIALOGUE_CROP_VANDALS_5	Speaker: Boe	The law turns a blind eye for the privileged.
POST_DIALOGUE_CROP_VANDALS_6	Speaker: Ishta	And how do you know that?
POST_DIALOGUE_CROP_VANDALS_7	Speaker: Boe	I have my ways.
POST_DIALOGUE_CROP_VANDALS_8	Speaker: Boe	Anyways, looks like our work here is done. Good work everyone!
PRE_DIALOGUE_CHALLENGERS_WANTED_0	Speaker: Sasha	Let us test our skills in battle!
PRE_DIALOGUE_CHALLENGERS_WANTED_1	Speaker: Boe	Let's go!
PRE_DIALOGUE_CULT_KIDNAPPING_0	(Scene: youing girl name bee is kidnapped by some cultists) Speaker: Bee	Let me go you idiots!
PRE_DIALOGUE_CULT_KIDNAPPING_1	Speaker: Bee	You morons are going to regret kidnapping me!
PRE_DIALOGUE_CULT_KIDNAPPING_2	Speaker: Cultist 1	This kid is getting on my nerves. Can't we just off her and get someone else?
PRE_DIALOGUE_CULT_KIDNAPPING_3	Speaker: Cultist 2	No, Lady Mae said this girl is important.
PRE_DIALOGUE_CULT_KIDNAPPING_4	Speaker: Bee	Benny is going to come rescue me any minute now. You guys are all going to die!
PRE_DIALOGUE_CULT_KIDNAPPING_5	Speaker: Cultist 1	Who's Benny? Isn't this girl an orphan?
PRE_DIALOGUE_CULT_KIDNAPPING_6	Speaker: Cultist 2	Yes, she doesn't have any friends or family. No one's coming to look for her.
PRE_DIALOGUE_CULT_KIDNAPPING_7	Speaker: Cultist 3	Don't be so sure, someone is coming.
PRE_DIALOGUE_CULT_KIDNAPPING_8	(Player party enters) Speaker: Boe	The White Crows are here! Surrender now cultist scum!
PRE_DIALOGUE_CULT_KIDNAPPING_9	Speaker: Ishta	Was such a grand entrance necessary?
PRE_DIALOGUE_CULT_KIDNAPPING_10	Speaker: Runa	Look. They've captured a young girl. We must save her.
PRE_DIALOGUE_CULT_KIDNAPPING_11	Speaker: Cultist	You guys have some nerve coming here. Prepare to die!
PRE_DIALOGUE_CULT_KIDNAPPING_12	(Enter Benny, a Wolf) Speaker: Benny	Grrr...
PRE_DIALOGUE_CULT_KIDNAPPING_13	Speaker: Bee	Benny! Now you idiots are going to get it!
END_DIALOGUE_CULT_KIDNAPPING_0	(After battle) Speaker: Bee	Benny, my hero!
END_DIALOGUE_CULT_KIDNAPPING_1	Speaker: Benny	Woof!
END_DIALOGUE_CULT_KIDNAPPING_2	Speaker: Ishta	Hey! We're the ones that did all the work!
END_DIALOGUE_CULT_KIDNAPPING_3	Speaker: Bee	You idiots didn't do anything! Let's get out of here Benny.
END_DIALOGUE_CULT_KIDNAPPING_4	Speaker: Benny	Woof!
END_DIALOGUE_CULT_KIDNAPPING_5	(Bee and benny leave) Speaker: Ishta	You little...
END_DIALOGUE_CULT_KIDNAPPING_6	Speaker: Boe	Getting mad at every ungrateful kid is going to wear you out.
END_DIALOGUE_CULT_KIDNAPPING_7	Speaker: Runa	I am glad we could save her, regardless of her gratefulness.
END_DIALOGUE_CULT_KIDNAPPING_8	Speaker: Boe	And I'm just glad we're getting paid. Now let's get out of here. 