%YAML 1.1
%TAG !u! tag:unity3d.com,2011:
--- !u!181963792 &2655988077585873504
Preset:
  m_ObjectHideFlags: 0
  m_CorrespondingSourceObject: {fileID: 0}
  m_PrefabInstance: {fileID: 0}
  m_PrefabAsset: {fileID: 0}
  m_Name: spear_weapon_ss_48ppu
  m_TargetType:
    m_NativeTypeID: 1006
    m_ManagedTypePPtr: {fileID: 0}
    m_ManagedTypeFallback: 
  m_Properties:
  - target: {fileID: 0}
    propertyPath: m_ExternalObjects.Array.size
    value: 0
    objectReference: {fileID: 0}
  - target: {fileID: 0}
    propertyPath: m_MipMapMode
    value: 0
    objectReference: {fileID: 0}
  - target: {fileID: 0}
    propertyPath: m_EnableMipMap
    value: 0
    objectReference: {fileID: 0}
  - target: {fileID: 0}
    propertyPath: m_sRGBTexture
    value: 1
    objectReference: {fileID: 0}
  - target: {fileID: 0}
    propertyPath: m_LinearTexture
    value: 0
    objectReference: {fileID: 0}
  - target: {fileID: 0}
    propertyPath: m_FadeOut
    value: 0
    objectReference: {fileID: 0}
  - target: {fileID: 0}
    propertyPath: m_BorderMipMap
    value: 0
    objectReference: {fileID: 0}
  - target: {fileID: 0}
    propertyPath: m_MipMapsPreserveCoverage
    value: 0
    objectReference: {fileID: 0}
  - target: {fileID: 0}
    propertyPath: m_AlphaTestReferenceValue
    value: 0.5
    objectReference: {fileID: 0}
  - target: {fileID: 0}
    propertyPath: m_MipMapFadeDistanceStart
    value: 1
    objectReference: {fileID: 0}
  - target: {fileID: 0}
    propertyPath: m_MipMapFadeDistanceEnd
    value: 3
    objectReference: {fileID: 0}
  - target: {fileID: 0}
    propertyPath: m_ConvertToNormalMap
    value: 0
    objectReference: {fileID: 0}
  - target: {fileID: 0}
    propertyPath: m_ExternalNormalMap
    value: 0
    objectReference: {fileID: 0}
  - target: {fileID: 0}
    propertyPath: m_HeightScale
    value: 0.25
    objectReference: {fileID: 0}
  - target: {fileID: 0}
    propertyPath: m_NormalMapFilter
    value: 0
    objectReference: {fileID: 0}
  - target: {fileID: 0}
    propertyPath: m_IsReadable
    value: 0
    objectReference: {fileID: 0}
  - target: {fileID: 0}
    propertyPath: m_StreamingMipmaps
    value: 0
    objectReference: {fileID: 0}
  - target: {fileID: 0}
    propertyPath: m_StreamingMipmapsPriority
    value: 0
    objectReference: {fileID: 0}
  - target: {fileID: 0}
    propertyPath: m_GrayScaleToAlpha
    value: 0
    objectReference: {fileID: 0}
  - target: {fileID: 0}
    propertyPath: m_GenerateCubemap
    value: 6
    objectReference: {fileID: 0}
  - target: {fileID: 0}
    propertyPath: m_CubemapConvolution
    value: 0
    objectReference: {fileID: 0}
  - target: {fileID: 0}
    propertyPath: m_SeamlessCubemap
    value: 0
    objectReference: {fileID: 0}
  - target: {fileID: 0}
    propertyPath: m_TextureFormat
    value: 1
    objectReference: {fileID: 0}
  - target: {fileID: 0}
    propertyPath: m_MaxTextureSize
    value: 2048
    objectReference: {fileID: 0}
  - target: {fileID: 0}
    propertyPath: m_TextureSettings.m_FilterMode
    value: 0
    objectReference: {fileID: 0}
  - target: {fileID: 0}
    propertyPath: m_TextureSettings.m_Aniso
    value: -1
    objectReference: {fileID: 0}
  - target: {fileID: 0}
    propertyPath: m_TextureSettings.m_MipBias
    value: -100
    objectReference: {fileID: 0}
  - target: {fileID: 0}
    propertyPath: m_TextureSettings.m_WrapU
    value: 1
    objectReference: {fileID: 0}
  - target: {fileID: 0}
    propertyPath: m_TextureSettings.m_WrapV
    value: 1
    objectReference: {fileID: 0}
  - target: {fileID: 0}
    propertyPath: m_TextureSettings.m_WrapW
    value: 1
    objectReference: {fileID: 0}
  - target: {fileID: 0}
    propertyPath: m_NPOTScale
    value: 0
    objectReference: {fileID: 0}
  - target: {fileID: 0}
    propertyPath: m_Lightmap
    value: 0
    objectReference: {fileID: 0}
  - target: {fileID: 0}
    propertyPath: m_CompressionQuality
    value: 50
    objectReference: {fileID: 0}
  - target: {fileID: 0}
    propertyPath: m_SpriteMode
    value: 2
    objectReference: {fileID: 0}
  - target: {fileID: 0}
    propertyPath: m_SpriteExtrude
    value: 1
    objectReference: {fileID: 0}
  - target: {fileID: 0}
    propertyPath: m_SpriteMeshType
    value: 1
    objectReference: {fileID: 0}
  - target: {fileID: 0}
    propertyPath: m_Alignment
    value: 0
    objectReference: {fileID: 0}
  - target: {fileID: 0}
    propertyPath: m_SpritePivot.x
    value: 0.5
    objectReference: {fileID: 0}
  - target: {fileID: 0}
    propertyPath: m_SpritePivot.y
    value: 0.5
    objectReference: {fileID: 0}
  - target: {fileID: 0}
    propertyPath: m_SpritePixelsToUnits
    value: 48
    objectReference: {fileID: 0}
  - target: {fileID: 0}
    propertyPath: m_SpriteBorder.x
    value: 0
    objectReference: {fileID: 0}
  - target: {fileID: 0}
    propertyPath: m_SpriteBorder.y
    value: 0
    objectReference: {fileID: 0}
  - target: {fileID: 0}
    propertyPath: m_SpriteBorder.z
    value: 0
    objectReference: {fileID: 0}
  - target: {fileID: 0}
    propertyPath: m_SpriteBorder.w
    value: 0
    objectReference: {fileID: 0}
  - target: {fileID: 0}
    propertyPath: m_SpriteGenerateFallbackPhysicsShape
    value: 1
    objectReference: {fileID: 0}
  - target: {fileID: 0}
    propertyPath: m_AlphaUsage
    value: 1
    objectReference: {fileID: 0}
  - target: {fileID: 0}
    propertyPath: m_AlphaIsTransparency
    value: 1
    objectReference: {fileID: 0}
  - target: {fileID: 0}
    propertyPath: m_SpriteTessellationDetail
    value: -1
    objectReference: {fileID: 0}
  - target: {fileID: 0}
    propertyPath: m_TextureType
    value: 8
    objectReference: {fileID: 0}
  - target: {fileID: 0}
    propertyPath: m_TextureShape
    value: 1
    objectReference: {fileID: 0}
  - target: {fileID: 0}
    propertyPath: m_SingleChannelComponent
    value: 0
    objectReference: {fileID: 0}
  - target: {fileID: 0}
    propertyPath: m_MaxTextureSizeSet
    value: 0
    objectReference: {fileID: 0}
  - target: {fileID: 0}
    propertyPath: m_CompressionQualitySet
    value: 0
    objectReference: {fileID: 0}
  - target: {fileID: 0}
    propertyPath: m_TextureFormatSet
    value: 0
    objectReference: {fileID: 0}
  - target: {fileID: 0}
    propertyPath: m_ApplyGammaDecoding
    value: 0
    objectReference: {fileID: 0}
  - target: {fileID: 0}
    propertyPath: m_PlatformSettings.Array.size
    value: 3
    objectReference: {fileID: 0}
  - target: {fileID: 0}
    propertyPath: m_PlatformSettings.Array.data[0].m_BuildTarget
    value: DefaultTexturePlatform
    objectReference: {fileID: 0}
  - target: {fileID: 0}
    propertyPath: m_PlatformSettings.Array.data[0].m_MaxTextureSize
    value: 8192
    objectReference: {fileID: 0}
  - target: {fileID: 0}
    propertyPath: m_PlatformSettings.Array.data[0].m_ResizeAlgorithm
    value: 0
    objectReference: {fileID: 0}
  - target: {fileID: 0}
    propertyPath: m_PlatformSettings.Array.data[0].m_TextureFormat
    value: -1
    objectReference: {fileID: 0}
  - target: {fileID: 0}
    propertyPath: m_PlatformSettings.Array.data[0].m_TextureCompression
    value: 0
    objectReference: {fileID: 0}
  - target: {fileID: 0}
    propertyPath: m_PlatformSettings.Array.data[0].m_CompressionQuality
    value: 50
    objectReference: {fileID: 0}
  - target: {fileID: 0}
    propertyPath: m_PlatformSettings.Array.data[0].m_CrunchedCompression
    value: 0
    objectReference: {fileID: 0}
  - target: {fileID: 0}
    propertyPath: m_PlatformSettings.Array.data[0].m_AllowsAlphaSplitting
    value: 0
    objectReference: {fileID: 0}
  - target: {fileID: 0}
    propertyPath: m_PlatformSettings.Array.data[0].m_Overridden
    value: 0
    objectReference: {fileID: 0}
  - target: {fileID: 0}
    propertyPath: m_PlatformSettings.Array.data[0].m_AndroidETC2FallbackOverride
    value: 0
    objectReference: {fileID: 0}
  - target: {fileID: 0}
    propertyPath: m_PlatformSettings.Array.data[0].m_ForceMaximumCompressionQuality_BC6H_BC7
    value: 0
    objectReference: {fileID: 0}
  - target: {fileID: 0}
    propertyPath: m_PlatformSettings.Array.data[1].m_BuildTarget
    value: Standalone
    objectReference: {fileID: 0}
  - target: {fileID: 0}
    propertyPath: m_PlatformSettings.Array.data[1].m_MaxTextureSize
    value: 8192
    objectReference: {fileID: 0}
  - target: {fileID: 0}
    propertyPath: m_PlatformSettings.Array.data[1].m_ResizeAlgorithm
    value: 0
    objectReference: {fileID: 0}
  - target: {fileID: 0}
    propertyPath: m_PlatformSettings.Array.data[1].m_TextureFormat
    value: -1
    objectReference: {fileID: 0}
  - target: {fileID: 0}
    propertyPath: m_PlatformSettings.Array.data[1].m_TextureCompression
    value: 0
    objectReference: {fileID: 0}
  - target: {fileID: 0}
    propertyPath: m_PlatformSettings.Array.data[1].m_CompressionQuality
    value: 50
    objectReference: {fileID: 0}
  - target: {fileID: 0}
    propertyPath: m_PlatformSettings.Array.data[1].m_CrunchedCompression
    value: 0
    objectReference: {fileID: 0}
  - target: {fileID: 0}
    propertyPath: m_PlatformSettings.Array.data[1].m_AllowsAlphaSplitting
    value: 0
    objectReference: {fileID: 0}
  - target: {fileID: 0}
    propertyPath: m_PlatformSettings.Array.data[1].m_Overridden
    value: 0
    objectReference: {fileID: 0}
  - target: {fileID: 0}
    propertyPath: m_PlatformSettings.Array.data[1].m_AndroidETC2FallbackOverride
    value: 0
    objectReference: {fileID: 0}
  - target: {fileID: 0}
    propertyPath: m_PlatformSettings.Array.data[1].m_ForceMaximumCompressionQuality_BC6H_BC7
    value: 0
    objectReference: {fileID: 0}
  - target: {fileID: 0}
    propertyPath: m_PlatformSettings.Array.data[2].m_BuildTarget
    value: WebGL
    objectReference: {fileID: 0}
  - target: {fileID: 0}
    propertyPath: m_PlatformSettings.Array.data[2].m_MaxTextureSize
    value: 8192
    objectReference: {fileID: 0}
  - target: {fileID: 0}
    propertyPath: m_PlatformSettings.Array.data[2].m_ResizeAlgorithm
    value: 0
    objectReference: {fileID: 0}
  - target: {fileID: 0}
    propertyPath: m_PlatformSettings.Array.data[2].m_TextureFormat
    value: -1
    objectReference: {fileID: 0}
  - target: {fileID: 0}
    propertyPath: m_PlatformSettings.Array.data[2].m_TextureCompression
    value: 0
    objectReference: {fileID: 0}
  - target: {fileID: 0}
    propertyPath: m_PlatformSettings.Array.data[2].m_CompressionQuality
    value: 50
    objectReference: {fileID: 0}
  - target: {fileID: 0}
    propertyPath: m_PlatformSettings.Array.data[2].m_CrunchedCompression
    value: 0
    objectReference: {fileID: 0}
  - target: {fileID: 0}
    propertyPath: m_PlatformSettings.Array.data[2].m_AllowsAlphaSplitting
    value: 0
    objectReference: {fileID: 0}
  - target: {fileID: 0}
    propertyPath: m_PlatformSettings.Array.data[2].m_Overridden
    value: 0
    objectReference: {fileID: 0}
  - target: {fileID: 0}
    propertyPath: m_PlatformSettings.Array.data[2].m_AndroidETC2FallbackOverride
    value: 0
    objectReference: {fileID: 0}
  - target: {fileID: 0}
    propertyPath: m_PlatformSettings.Array.data[2].m_ForceMaximumCompressionQuality_BC6H_BC7
    value: 0
    objectReference: {fileID: 0}
  - target: {fileID: 0}
    propertyPath: m_SpriteSheet.m_Sprites.Array.size
    value: 12
    objectReference: {fileID: 0}
  - target: {fileID: 0}
    propertyPath: m_SpriteSheet.m_Sprites.Array.data[0].m_Name
    value: f_spear_0
    objectReference: {fileID: 0}
  - target: {fileID: 0}
    propertyPath: m_SpriteSheet.m_Sprites.Array.data[0].m_Rect.x
    value: 0
    objectReference: {fileID: 0}
  - target: {fileID: 0}
    propertyPath: m_SpriteSheet.m_Sprites.Array.data[0].m_Rect.y
    value: 96
    objectReference: {fileID: 0}
  - target: {fileID: 0}
    propertyPath: m_SpriteSheet.m_Sprites.Array.data[0].m_Rect.width
    value: 96
    objectReference: {fileID: 0}
  - target: {fileID: 0}
    propertyPath: m_SpriteSheet.m_Sprites.Array.data[0].m_Rect.height
    value: 96
    objectReference: {fileID: 0}
  - target: {fileID: 0}
    propertyPath: m_SpriteSheet.m_Sprites.Array.data[0].m_Alignment
    value: 9
    objectReference: {fileID: 0}
  - target: {fileID: 0}
    propertyPath: m_SpriteSheet.m_Sprites.Array.data[0].m_Pivot.x
    value: 0.666
    objectReference: {fileID: 0}
  - target: {fileID: 0}
    propertyPath: m_SpriteSheet.m_Sprites.Array.data[0].m_Pivot.y
    value: 0.666
    objectReference: {fileID: 0}
  - target: {fileID: 0}
    propertyPath: m_SpriteSheet.m_Sprites.Array.data[0].m_Border.x
    value: 0
    objectReference: {fileID: 0}
  - target: {fileID: 0}
    propertyPath: m_SpriteSheet.m_Sprites.Array.data[0].m_Border.y
    value: 0
    objectReference: {fileID: 0}
  - target: {fileID: 0}
    propertyPath: m_SpriteSheet.m_Sprites.Array.data[0].m_Border.z
    value: 0
    objectReference: {fileID: 0}
  - target: {fileID: 0}
    propertyPath: m_SpriteSheet.m_Sprites.Array.data[0].m_Border.w
    value: 0
    objectReference: {fileID: 0}
  - target: {fileID: 0}
    propertyPath: m_SpriteSheet.m_Sprites.Array.data[0].m_Outline.Array.size
    value: 0
    objectReference: {fileID: 0}
  - target: {fileID: 0}
    propertyPath: m_SpriteSheet.m_Sprites.Array.data[0].m_PhysicsShape.Array.size
    value: 0
    objectReference: {fileID: 0}
  - target: {fileID: 0}
    propertyPath: m_SpriteSheet.m_Sprites.Array.data[0].m_TessellationDetail
    value: 0
    objectReference: {fileID: 0}
  - target: {fileID: 0}
    propertyPath: m_SpriteSheet.m_Sprites.Array.data[0].m_Bones.Array.size
    value: 0
    objectReference: {fileID: 0}
  - target: {fileID: 0}
    propertyPath: m_SpriteSheet.m_Sprites.Array.data[0].m_SpriteID
    value: b43c8f1eb2f191fb0800000000000000
    objectReference: {fileID: 0}
  - target: {fileID: 0}
    propertyPath: m_SpriteSheet.m_Sprites.Array.data[0].m_InternalID
    value: -4676672464712318133
    objectReference: {fileID: 0}
  - target: {fileID: 0}
    propertyPath: m_SpriteSheet.m_Sprites.Array.data[0].m_Vertices.Array.size
    value: 0
    objectReference: {fileID: 0}
  - target: {fileID: 0}
    propertyPath: m_SpriteSheet.m_Sprites.Array.data[0].m_Indices.Array.size
    value: 0
    objectReference: {fileID: 0}
  - target: {fileID: 0}
    propertyPath: m_SpriteSheet.m_Sprites.Array.data[0].m_Edges.Array.size
    value: 0
    objectReference: {fileID: 0}
  - target: {fileID: 0}
    propertyPath: m_SpriteSheet.m_Sprites.Array.data[0].m_Weights.Array.size
    value: 0
    objectReference: {fileID: 0}
  - target: {fileID: 0}
    propertyPath: m_SpriteSheet.m_Sprites.Array.data[1].m_Name
    value: f_spear_1
    objectReference: {fileID: 0}
  - target: {fileID: 0}
    propertyPath: m_SpriteSheet.m_Sprites.Array.data[1].m_Rect.x
    value: 96
    objectReference: {fileID: 0}
  - target: {fileID: 0}
    propertyPath: m_SpriteSheet.m_Sprites.Array.data[1].m_Rect.y
    value: 96
    objectReference: {fileID: 0}
  - target: {fileID: 0}
    propertyPath: m_SpriteSheet.m_Sprites.Array.data[1].m_Rect.width
    value: 96
    objectReference: {fileID: 0}
  - target: {fileID: 0}
    propertyPath: m_SpriteSheet.m_Sprites.Array.data[1].m_Rect.height
    value: 96
    objectReference: {fileID: 0}
  - target: {fileID: 0}
    propertyPath: m_SpriteSheet.m_Sprites.Array.data[1].m_Alignment
    value: 9
    objectReference: {fileID: 0}
  - target: {fileID: 0}
    propertyPath: m_SpriteSheet.m_Sprites.Array.data[1].m_Pivot.x
    value: 0.666
    objectReference: {fileID: 0}
  - target: {fileID: 0}
    propertyPath: m_SpriteSheet.m_Sprites.Array.data[1].m_Pivot.y
    value: 0.666
    objectReference: {fileID: 0}
  - target: {fileID: 0}
    propertyPath: m_SpriteSheet.m_Sprites.Array.data[1].m_Border.x
    value: 0
    objectReference: {fileID: 0}
  - target: {fileID: 0}
    propertyPath: m_SpriteSheet.m_Sprites.Array.data[1].m_Border.y
    value: 0
    objectReference: {fileID: 0}
  - target: {fileID: 0}
    propertyPath: m_SpriteSheet.m_Sprites.Array.data[1].m_Border.z
    value: 0
    objectReference: {fileID: 0}
  - target: {fileID: 0}
    propertyPath: m_SpriteSheet.m_Sprites.Array.data[1].m_Border.w
    value: 0
    objectReference: {fileID: 0}
  - target: {fileID: 0}
    propertyPath: m_SpriteSheet.m_Sprites.Array.data[1].m_Outline.Array.size
    value: 0
    objectReference: {fileID: 0}
  - target: {fileID: 0}
    propertyPath: m_SpriteSheet.m_Sprites.Array.data[1].m_PhysicsShape.Array.size
    value: 0
    objectReference: {fileID: 0}
  - target: {fileID: 0}
    propertyPath: m_SpriteSheet.m_Sprites.Array.data[1].m_TessellationDetail
    value: 0
    objectReference: {fileID: 0}
  - target: {fileID: 0}
    propertyPath: m_SpriteSheet.m_Sprites.Array.data[1].m_Bones.Array.size
    value: 0
    objectReference: {fileID: 0}
  - target: {fileID: 0}
    propertyPath: m_SpriteSheet.m_Sprites.Array.data[1].m_SpriteID
    value: e40fd694e2af8b780800000000000000
    objectReference: {fileID: 0}
  - target: {fileID: 0}
    propertyPath: m_SpriteSheet.m_Sprites.Array.data[1].m_InternalID
    value: -8666902406167138226
    objectReference: {fileID: 0}
  - target: {fileID: 0}
    propertyPath: m_SpriteSheet.m_Sprites.Array.data[1].m_Vertices.Array.size
    value: 0
    objectReference: {fileID: 0}
  - target: {fileID: 0}
    propertyPath: m_SpriteSheet.m_Sprites.Array.data[1].m_Indices.Array.size
    value: 0
    objectReference: {fileID: 0}
  - target: {fileID: 0}
    propertyPath: m_SpriteSheet.m_Sprites.Array.data[1].m_Edges.Array.size
    value: 0
    objectReference: {fileID: 0}
  - target: {fileID: 0}
    propertyPath: m_SpriteSheet.m_Sprites.Array.data[1].m_Weights.Array.size
    value: 0
    objectReference: {fileID: 0}
  - target: {fileID: 0}
    propertyPath: m_SpriteSheet.m_Sprites.Array.data[2].m_Name
    value: f_spear_2
    objectReference: {fileID: 0}
  - target: {fileID: 0}
    propertyPath: m_SpriteSheet.m_Sprites.Array.data[2].m_Rect.x
    value: 192
    objectReference: {fileID: 0}
  - target: {fileID: 0}
    propertyPath: m_SpriteSheet.m_Sprites.Array.data[2].m_Rect.y
    value: 96
    objectReference: {fileID: 0}
  - target: {fileID: 0}
    propertyPath: m_SpriteSheet.m_Sprites.Array.data[2].m_Rect.width
    value: 96
    objectReference: {fileID: 0}
  - target: {fileID: 0}
    propertyPath: m_SpriteSheet.m_Sprites.Array.data[2].m_Rect.height
    value: 96
    objectReference: {fileID: 0}
  - target: {fileID: 0}
    propertyPath: m_SpriteSheet.m_Sprites.Array.data[2].m_Alignment
    value: 9
    objectReference: {fileID: 0}
  - target: {fileID: 0}
    propertyPath: m_SpriteSheet.m_Sprites.Array.data[2].m_Pivot.x
    value: 0.666
    objectReference: {fileID: 0}
  - target: {fileID: 0}
    propertyPath: m_SpriteSheet.m_Sprites.Array.data[2].m_Pivot.y
    value: 0.666
    objectReference: {fileID: 0}
  - target: {fileID: 0}
    propertyPath: m_SpriteSheet.m_Sprites.Array.data[2].m_Border.x
    value: 0
    objectReference: {fileID: 0}
  - target: {fileID: 0}
    propertyPath: m_SpriteSheet.m_Sprites.Array.data[2].m_Border.y
    value: 0
    objectReference: {fileID: 0}
  - target: {fileID: 0}
    propertyPath: m_SpriteSheet.m_Sprites.Array.data[2].m_Border.z
    value: 0
    objectReference: {fileID: 0}
  - target: {fileID: 0}
    propertyPath: m_SpriteSheet.m_Sprites.Array.data[2].m_Border.w
    value: 0
    objectReference: {fileID: 0}
  - target: {fileID: 0}
    propertyPath: m_SpriteSheet.m_Sprites.Array.data[2].m_Outline.Array.size
    value: 0
    objectReference: {fileID: 0}
  - target: {fileID: 0}
    propertyPath: m_SpriteSheet.m_Sprites.Array.data[2].m_PhysicsShape.Array.size
    value: 0
    objectReference: {fileID: 0}
  - target: {fileID: 0}
    propertyPath: m_SpriteSheet.m_Sprites.Array.data[2].m_TessellationDetail
    value: 0
    objectReference: {fileID: 0}
  - target: {fileID: 0}
    propertyPath: m_SpriteSheet.m_Sprites.Array.data[2].m_Bones.Array.size
    value: 0
    objectReference: {fileID: 0}
  - target: {fileID: 0}
    propertyPath: m_SpriteSheet.m_Sprites.Array.data[2].m_SpriteID
    value: eaebd7716eb4f28c0800000000000000
    objectReference: {fileID: 0}
  - target: {fileID: 0}
    propertyPath: m_SpriteSheet.m_Sprites.Array.data[2].m_InternalID
    value: -4021912490609885522
    objectReference: {fileID: 0}
  - target: {fileID: 0}
    propertyPath: m_SpriteSheet.m_Sprites.Array.data[2].m_Vertices.Array.size
    value: 0
    objectReference: {fileID: 0}
  - target: {fileID: 0}
    propertyPath: m_SpriteSheet.m_Sprites.Array.data[2].m_Indices.Array.size
    value: 0
    objectReference: {fileID: 0}
  - target: {fileID: 0}
    propertyPath: m_SpriteSheet.m_Sprites.Array.data[2].m_Edges.Array.size
    value: 0
    objectReference: {fileID: 0}
  - target: {fileID: 0}
    propertyPath: m_SpriteSheet.m_Sprites.Array.data[2].m_Weights.Array.size
    value: 0
    objectReference: {fileID: 0}
  - target: {fileID: 0}
    propertyPath: m_SpriteSheet.m_Sprites.Array.data[3].m_Name
    value: f_spear_3
    objectReference: {fileID: 0}
  - target: {fileID: 0}
    propertyPath: m_SpriteSheet.m_Sprites.Array.data[3].m_Rect.x
    value: 288
    objectReference: {fileID: 0}
  - target: {fileID: 0}
    propertyPath: m_SpriteSheet.m_Sprites.Array.data[3].m_Rect.y
    value: 96
    objectReference: {fileID: 0}
  - target: {fileID: 0}
    propertyPath: m_SpriteSheet.m_Sprites.Array.data[3].m_Rect.width
    value: 96
    objectReference: {fileID: 0}
  - target: {fileID: 0}
    propertyPath: m_SpriteSheet.m_Sprites.Array.data[3].m_Rect.height
    value: 96
    objectReference: {fileID: 0}
  - target: {fileID: 0}
    propertyPath: m_SpriteSheet.m_Sprites.Array.data[3].m_Alignment
    value: 9
    objectReference: {fileID: 0}
  - target: {fileID: 0}
    propertyPath: m_SpriteSheet.m_Sprites.Array.data[3].m_Pivot.x
    value: 0.666
    objectReference: {fileID: 0}
  - target: {fileID: 0}
    propertyPath: m_SpriteSheet.m_Sprites.Array.data[3].m_Pivot.y
    value: 0.666
    objectReference: {fileID: 0}
  - target: {fileID: 0}
    propertyPath: m_SpriteSheet.m_Sprites.Array.data[3].m_Border.x
    value: 0
    objectReference: {fileID: 0}
  - target: {fileID: 0}
    propertyPath: m_SpriteSheet.m_Sprites.Array.data[3].m_Border.y
    value: 0
    objectReference: {fileID: 0}
  - target: {fileID: 0}
    propertyPath: m_SpriteSheet.m_Sprites.Array.data[3].m_Border.z
    value: 0
    objectReference: {fileID: 0}
  - target: {fileID: 0}
    propertyPath: m_SpriteSheet.m_Sprites.Array.data[3].m_Border.w
    value: 0
    objectReference: {fileID: 0}
  - target: {fileID: 0}
    propertyPath: m_SpriteSheet.m_Sprites.Array.data[3].m_Outline.Array.size
    value: 0
    objectReference: {fileID: 0}
  - target: {fileID: 0}
    propertyPath: m_SpriteSheet.m_Sprites.Array.data[3].m_PhysicsShape.Array.size
    value: 0
    objectReference: {fileID: 0}
  - target: {fileID: 0}
    propertyPath: m_SpriteSheet.m_Sprites.Array.data[3].m_TessellationDetail
    value: 0
    objectReference: {fileID: 0}
  - target: {fileID: 0}
    propertyPath: m_SpriteSheet.m_Sprites.Array.data[3].m_Bones.Array.size
    value: 0
    objectReference: {fileID: 0}
  - target: {fileID: 0}
    propertyPath: m_SpriteSheet.m_Sprites.Array.data[3].m_SpriteID
    value: f6a43d452a32a81d0800000000000000
    objectReference: {fileID: 0}
  - target: {fileID: 0}
    propertyPath: m_SpriteSheet.m_Sprites.Array.data[3].m_InternalID
    value: -3347824192881735057
    objectReference: {fileID: 0}
  - target: {fileID: 0}
    propertyPath: m_SpriteSheet.m_Sprites.Array.data[3].m_Vertices.Array.size
    value: 0
    objectReference: {fileID: 0}
  - target: {fileID: 0}
    propertyPath: m_SpriteSheet.m_Sprites.Array.data[3].m_Indices.Array.size
    value: 0
    objectReference: {fileID: 0}
  - target: {fileID: 0}
    propertyPath: m_SpriteSheet.m_Sprites.Array.data[3].m_Edges.Array.size
    value: 0
    objectReference: {fileID: 0}
  - target: {fileID: 0}
    propertyPath: m_SpriteSheet.m_Sprites.Array.data[3].m_Weights.Array.size
    value: 0
    objectReference: {fileID: 0}
  - target: {fileID: 0}
    propertyPath: m_SpriteSheet.m_Sprites.Array.data[4].m_Name
    value: f_spear_4
    objectReference: {fileID: 0}
  - target: {fileID: 0}
    propertyPath: m_SpriteSheet.m_Sprites.Array.data[4].m_Rect.x
    value: 384
    objectReference: {fileID: 0}
  - target: {fileID: 0}
    propertyPath: m_SpriteSheet.m_Sprites.Array.data[4].m_Rect.y
    value: 96
    objectReference: {fileID: 0}
  - target: {fileID: 0}
    propertyPath: m_SpriteSheet.m_Sprites.Array.data[4].m_Rect.width
    value: 96
    objectReference: {fileID: 0}
  - target: {fileID: 0}
    propertyPath: m_SpriteSheet.m_Sprites.Array.data[4].m_Rect.height
    value: 96
    objectReference: {fileID: 0}
  - target: {fileID: 0}
    propertyPath: m_SpriteSheet.m_Sprites.Array.data[4].m_Alignment
    value: 9
    objectReference: {fileID: 0}
  - target: {fileID: 0}
    propertyPath: m_SpriteSheet.m_Sprites.Array.data[4].m_Pivot.x
    value: 0.666
    objectReference: {fileID: 0}
  - target: {fileID: 0}
    propertyPath: m_SpriteSheet.m_Sprites.Array.data[4].m_Pivot.y
    value: 0.666
    objectReference: {fileID: 0}
  - target: {fileID: 0}
    propertyPath: m_SpriteSheet.m_Sprites.Array.data[4].m_Border.x
    value: 0
    objectReference: {fileID: 0}
  - target: {fileID: 0}
    propertyPath: m_SpriteSheet.m_Sprites.Array.data[4].m_Border.y
    value: 0
    objectReference: {fileID: 0}
  - target: {fileID: 0}
    propertyPath: m_SpriteSheet.m_Sprites.Array.data[4].m_Border.z
    value: 0
    objectReference: {fileID: 0}
  - target: {fileID: 0}
    propertyPath: m_SpriteSheet.m_Sprites.Array.data[4].m_Border.w
    value: 0
    objectReference: {fileID: 0}
  - target: {fileID: 0}
    propertyPath: m_SpriteSheet.m_Sprites.Array.data[4].m_Outline.Array.size
    value: 0
    objectReference: {fileID: 0}
  - target: {fileID: 0}
    propertyPath: m_SpriteSheet.m_Sprites.Array.data[4].m_PhysicsShape.Array.size
    value: 0
    objectReference: {fileID: 0}
  - target: {fileID: 0}
    propertyPath: m_SpriteSheet.m_Sprites.Array.data[4].m_TessellationDetail
    value: 0
    objectReference: {fileID: 0}
  - target: {fileID: 0}
    propertyPath: m_SpriteSheet.m_Sprites.Array.data[4].m_Bones.Array.size
    value: 0
    objectReference: {fileID: 0}
  - target: {fileID: 0}
    propertyPath: m_SpriteSheet.m_Sprites.Array.data[4].m_SpriteID
    value: 64ec19be71dc3fc90800000000000000
    objectReference: {fileID: 0}
  - target: {fileID: 0}
    propertyPath: m_SpriteSheet.m_Sprites.Array.data[4].m_InternalID
    value: -7137135481831961018
    objectReference: {fileID: 0}
  - target: {fileID: 0}
    propertyPath: m_SpriteSheet.m_Sprites.Array.data[4].m_Vertices.Array.size
    value: 0
    objectReference: {fileID: 0}
  - target: {fileID: 0}
    propertyPath: m_SpriteSheet.m_Sprites.Array.data[4].m_Indices.Array.size
    value: 0
    objectReference: {fileID: 0}
  - target: {fileID: 0}
    propertyPath: m_SpriteSheet.m_Sprites.Array.data[4].m_Edges.Array.size
    value: 0
    objectReference: {fileID: 0}
  - target: {fileID: 0}
    propertyPath: m_SpriteSheet.m_Sprites.Array.data[4].m_Weights.Array.size
    value: 0
    objectReference: {fileID: 0}
  - target: {fileID: 0}
    propertyPath: m_SpriteSheet.m_Sprites.Array.data[5].m_Name
    value: f_spear_5
    objectReference: {fileID: 0}
  - target: {fileID: 0}
    propertyPath: m_SpriteSheet.m_Sprites.Array.data[5].m_Rect.x
    value: 480
    objectReference: {fileID: 0}
  - target: {fileID: 0}
    propertyPath: m_SpriteSheet.m_Sprites.Array.data[5].m_Rect.y
    value: 96
    objectReference: {fileID: 0}
  - target: {fileID: 0}
    propertyPath: m_SpriteSheet.m_Sprites.Array.data[5].m_Rect.width
    value: 96
    objectReference: {fileID: 0}
  - target: {fileID: 0}
    propertyPath: m_SpriteSheet.m_Sprites.Array.data[5].m_Rect.height
    value: 96
    objectReference: {fileID: 0}
  - target: {fileID: 0}
    propertyPath: m_SpriteSheet.m_Sprites.Array.data[5].m_Alignment
    value: 9
    objectReference: {fileID: 0}
  - target: {fileID: 0}
    propertyPath: m_SpriteSheet.m_Sprites.Array.data[5].m_Pivot.x
    value: 0.666
    objectReference: {fileID: 0}
  - target: {fileID: 0}
    propertyPath: m_SpriteSheet.m_Sprites.Array.data[5].m_Pivot.y
    value: 0.666
    objectReference: {fileID: 0}
  - target: {fileID: 0}
    propertyPath: m_SpriteSheet.m_Sprites.Array.data[5].m_Border.x
    value: 0
    objectReference: {fileID: 0}
  - target: {fileID: 0}
    propertyPath: m_SpriteSheet.m_Sprites.Array.data[5].m_Border.y
    value: 0
    objectReference: {fileID: 0}
  - target: {fileID: 0}
    propertyPath: m_SpriteSheet.m_Sprites.Array.data[5].m_Border.z
    value: 0
    objectReference: {fileID: 0}
  - target: {fileID: 0}
    propertyPath: m_SpriteSheet.m_Sprites.Array.data[5].m_Border.w
    value: 0
    objectReference: {fileID: 0}
  - target: {fileID: 0}
    propertyPath: m_SpriteSheet.m_Sprites.Array.data[5].m_Outline.Array.size
    value: 0
    objectReference: {fileID: 0}
  - target: {fileID: 0}
    propertyPath: m_SpriteSheet.m_Sprites.Array.data[5].m_PhysicsShape.Array.size
    value: 0
    objectReference: {fileID: 0}
  - target: {fileID: 0}
    propertyPath: m_SpriteSheet.m_Sprites.Array.data[5].m_TessellationDetail
    value: 0
    objectReference: {fileID: 0}
  - target: {fileID: 0}
    propertyPath: m_SpriteSheet.m_Sprites.Array.data[5].m_Bones.Array.size
    value: 0
    objectReference: {fileID: 0}
  - target: {fileID: 0}
    propertyPath: m_SpriteSheet.m_Sprites.Array.data[5].m_SpriteID
    value: f5974ca6922ec5170800000000000000
    objectReference: {fileID: 0}
  - target: {fileID: 0}
    propertyPath: m_SpriteSheet.m_Sprites.Array.data[5].m_InternalID
    value: 8168652491656034655
    objectReference: {fileID: 0}
  - target: {fileID: 0}
    propertyPath: m_SpriteSheet.m_Sprites.Array.data[5].m_Vertices.Array.size
    value: 0
    objectReference: {fileID: 0}
  - target: {fileID: 0}
    propertyPath: m_SpriteSheet.m_Sprites.Array.data[5].m_Indices.Array.size
    value: 0
    objectReference: {fileID: 0}
  - target: {fileID: 0}
    propertyPath: m_SpriteSheet.m_Sprites.Array.data[5].m_Edges.Array.size
    value: 0
    objectReference: {fileID: 0}
  - target: {fileID: 0}
    propertyPath: m_SpriteSheet.m_Sprites.Array.data[5].m_Weights.Array.size
    value: 0
    objectReference: {fileID: 0}
  - target: {fileID: 0}
    propertyPath: m_SpriteSheet.m_Sprites.Array.data[6].m_Name
    value: b_spear_0
    objectReference: {fileID: 0}
  - target: {fileID: 0}
    propertyPath: m_SpriteSheet.m_Sprites.Array.data[6].m_Rect.x
    value: 0
    objectReference: {fileID: 0}
  - target: {fileID: 0}
    propertyPath: m_SpriteSheet.m_Sprites.Array.data[6].m_Rect.y
    value: 0
    objectReference: {fileID: 0}
  - target: {fileID: 0}
    propertyPath: m_SpriteSheet.m_Sprites.Array.data[6].m_Rect.width
    value: 96
    objectReference: {fileID: 0}
  - target: {fileID: 0}
    propertyPath: m_SpriteSheet.m_Sprites.Array.data[6].m_Rect.height
    value: 96
    objectReference: {fileID: 0}
  - target: {fileID: 0}
    propertyPath: m_SpriteSheet.m_Sprites.Array.data[6].m_Alignment
    value: 9
    objectReference: {fileID: 0}
  - target: {fileID: 0}
    propertyPath: m_SpriteSheet.m_Sprites.Array.data[6].m_Pivot.x
    value: 0.666
    objectReference: {fileID: 0}
  - target: {fileID: 0}
    propertyPath: m_SpriteSheet.m_Sprites.Array.data[6].m_Pivot.y
    value: 0.333
    objectReference: {fileID: 0}
  - target: {fileID: 0}
    propertyPath: m_SpriteSheet.m_Sprites.Array.data[6].m_Border.x
    value: 0
    objectReference: {fileID: 0}
  - target: {fileID: 0}
    propertyPath: m_SpriteSheet.m_Sprites.Array.data[6].m_Border.y
    value: 0
    objectReference: {fileID: 0}
  - target: {fileID: 0}
    propertyPath: m_SpriteSheet.m_Sprites.Array.data[6].m_Border.z
    value: 0
    objectReference: {fileID: 0}
  - target: {fileID: 0}
    propertyPath: m_SpriteSheet.m_Sprites.Array.data[6].m_Border.w
    value: 0
    objectReference: {fileID: 0}
  - target: {fileID: 0}
    propertyPath: m_SpriteSheet.m_Sprites.Array.data[6].m_Outline.Array.size
    value: 0
    objectReference: {fileID: 0}
  - target: {fileID: 0}
    propertyPath: m_SpriteSheet.m_Sprites.Array.data[6].m_PhysicsShape.Array.size
    value: 0
    objectReference: {fileID: 0}
  - target: {fileID: 0}
    propertyPath: m_SpriteSheet.m_Sprites.Array.data[6].m_TessellationDetail
    value: 0
    objectReference: {fileID: 0}
  - target: {fileID: 0}
    propertyPath: m_SpriteSheet.m_Sprites.Array.data[6].m_Bones.Array.size
    value: 0
    objectReference: {fileID: 0}
  - target: {fileID: 0}
    propertyPath: m_SpriteSheet.m_Sprites.Array.data[6].m_SpriteID
    value: d9c5ce95c41c3edc0800000000000000
    objectReference: {fileID: 0}
  - target: {fileID: 0}
    propertyPath: m_SpriteSheet.m_Sprites.Array.data[6].m_InternalID
    value: -3610829942550668131
    objectReference: {fileID: 0}
  - target: {fileID: 0}
    propertyPath: m_SpriteSheet.m_Sprites.Array.data[6].m_Vertices.Array.size
    value: 0
    objectReference: {fileID: 0}
  - target: {fileID: 0}
    propertyPath: m_SpriteSheet.m_Sprites.Array.data[6].m_Indices.Array.size
    value: 0
    objectReference: {fileID: 0}
  - target: {fileID: 0}
    propertyPath: m_SpriteSheet.m_Sprites.Array.data[6].m_Edges.Array.size
    value: 0
    objectReference: {fileID: 0}
  - target: {fileID: 0}
    propertyPath: m_SpriteSheet.m_Sprites.Array.data[6].m_Weights.Array.size
    value: 0
    objectReference: {fileID: 0}
  - target: {fileID: 0}
    propertyPath: m_SpriteSheet.m_Sprites.Array.data[7].m_Name
    value: b_spear_1
    objectReference: {fileID: 0}
  - target: {fileID: 0}
    propertyPath: m_SpriteSheet.m_Sprites.Array.data[7].m_Rect.x
    value: 96
    objectReference: {fileID: 0}
  - target: {fileID: 0}
    propertyPath: m_SpriteSheet.m_Sprites.Array.data[7].m_Rect.y
    value: 0
    objectReference: {fileID: 0}
  - target: {fileID: 0}
    propertyPath: m_SpriteSheet.m_Sprites.Array.data[7].m_Rect.width
    value: 96
    objectReference: {fileID: 0}
  - target: {fileID: 0}
    propertyPath: m_SpriteSheet.m_Sprites.Array.data[7].m_Rect.height
    value: 96
    objectReference: {fileID: 0}
  - target: {fileID: 0}
    propertyPath: m_SpriteSheet.m_Sprites.Array.data[7].m_Alignment
    value: 9
    objectReference: {fileID: 0}
  - target: {fileID: 0}
    propertyPath: m_SpriteSheet.m_Sprites.Array.data[7].m_Pivot.x
    value: 0.666
    objectReference: {fileID: 0}
  - target: {fileID: 0}
    propertyPath: m_SpriteSheet.m_Sprites.Array.data[7].m_Pivot.y
    value: 0.333
    objectReference: {fileID: 0}
  - target: {fileID: 0}
    propertyPath: m_SpriteSheet.m_Sprites.Array.data[7].m_Border.x
    value: 0
    objectReference: {fileID: 0}
  - target: {fileID: 0}
    propertyPath: m_SpriteSheet.m_Sprites.Array.data[7].m_Border.y
    value: 0
    objectReference: {fileID: 0}
  - target: {fileID: 0}
    propertyPath: m_SpriteSheet.m_Sprites.Array.data[7].m_Border.z
    value: 0
    objectReference: {fileID: 0}
  - target: {fileID: 0}
    propertyPath: m_SpriteSheet.m_Sprites.Array.data[7].m_Border.w
    value: 0
    objectReference: {fileID: 0}
  - target: {fileID: 0}
    propertyPath: m_SpriteSheet.m_Sprites.Array.data[7].m_Outline.Array.size
    value: 0
    objectReference: {fileID: 0}
  - target: {fileID: 0}
    propertyPath: m_SpriteSheet.m_Sprites.Array.data[7].m_PhysicsShape.Array.size
    value: 0
    objectReference: {fileID: 0}
  - target: {fileID: 0}
    propertyPath: m_SpriteSheet.m_Sprites.Array.data[7].m_TessellationDetail
    value: 0
    objectReference: {fileID: 0}
  - target: {fileID: 0}
    propertyPath: m_SpriteSheet.m_Sprites.Array.data[7].m_Bones.Array.size
    value: 0
    objectReference: {fileID: 0}
  - target: {fileID: 0}
    propertyPath: m_SpriteSheet.m_Sprites.Array.data[7].m_SpriteID
    value: 0caad48ad2b0185b0800000000000000
    objectReference: {fileID: 0}
  - target: {fileID: 0}
    propertyPath: m_SpriteSheet.m_Sprites.Array.data[7].m_InternalID
    value: -5367996990123824448
    objectReference: {fileID: 0}
  - target: {fileID: 0}
    propertyPath: m_SpriteSheet.m_Sprites.Array.data[7].m_Vertices.Array.size
    value: 0
    objectReference: {fileID: 0}
  - target: {fileID: 0}
    propertyPath: m_SpriteSheet.m_Sprites.Array.data[7].m_Indices.Array.size
    value: 0
    objectReference: {fileID: 0}
  - target: {fileID: 0}
    propertyPath: m_SpriteSheet.m_Sprites.Array.data[7].m_Edges.Array.size
    value: 0
    objectReference: {fileID: 0}
  - target: {fileID: 0}
    propertyPath: m_SpriteSheet.m_Sprites.Array.data[7].m_Weights.Array.size
    value: 0
    objectReference: {fileID: 0}
  - target: {fileID: 0}
    propertyPath: m_SpriteSheet.m_Sprites.Array.data[8].m_Name
    value: b_spear_2
    objectReference: {fileID: 0}
  - target: {fileID: 0}
    propertyPath: m_SpriteSheet.m_Sprites.Array.data[8].m_Rect.x
    value: 192
    objectReference: {fileID: 0}
  - target: {fileID: 0}
    propertyPath: m_SpriteSheet.m_Sprites.Array.data[8].m_Rect.y
    value: 0
    objectReference: {fileID: 0}
  - target: {fileID: 0}
    propertyPath: m_SpriteSheet.m_Sprites.Array.data[8].m_Rect.width
    value: 96
    objectReference: {fileID: 0}
  - target: {fileID: 0}
    propertyPath: m_SpriteSheet.m_Sprites.Array.data[8].m_Rect.height
    value: 96
    objectReference: {fileID: 0}
  - target: {fileID: 0}
    propertyPath: m_SpriteSheet.m_Sprites.Array.data[8].m_Alignment
    value: 9
    objectReference: {fileID: 0}
  - target: {fileID: 0}
    propertyPath: m_SpriteSheet.m_Sprites.Array.data[8].m_Pivot.x
    value: 0.666
    objectReference: {fileID: 0}
  - target: {fileID: 0}
    propertyPath: m_SpriteSheet.m_Sprites.Array.data[8].m_Pivot.y
    value: 0.333
    objectReference: {fileID: 0}
  - target: {fileID: 0}
    propertyPath: m_SpriteSheet.m_Sprites.Array.data[8].m_Border.x
    value: 0
    objectReference: {fileID: 0}
  - target: {fileID: 0}
    propertyPath: m_SpriteSheet.m_Sprites.Array.data[8].m_Border.y
    value: 0
    objectReference: {fileID: 0}
  - target: {fileID: 0}
    propertyPath: m_SpriteSheet.m_Sprites.Array.data[8].m_Border.z
    value: 0
    objectReference: {fileID: 0}
  - target: {fileID: 0}
    propertyPath: m_SpriteSheet.m_Sprites.Array.data[8].m_Border.w
    value: 0
    objectReference: {fileID: 0}
  - target: {fileID: 0}
    propertyPath: m_SpriteSheet.m_Sprites.Array.data[8].m_Outline.Array.size
    value: 0
    objectReference: {fileID: 0}
  - target: {fileID: 0}
    propertyPath: m_SpriteSheet.m_Sprites.Array.data[8].m_PhysicsShape.Array.size
    value: 0
    objectReference: {fileID: 0}
  - target: {fileID: 0}
    propertyPath: m_SpriteSheet.m_Sprites.Array.data[8].m_TessellationDetail
    value: 0
    objectReference: {fileID: 0}
  - target: {fileID: 0}
    propertyPath: m_SpriteSheet.m_Sprites.Array.data[8].m_Bones.Array.size
    value: 0
    objectReference: {fileID: 0}
  - target: {fileID: 0}
    propertyPath: m_SpriteSheet.m_Sprites.Array.data[8].m_SpriteID
    value: 3c1dcba723f89ef40800000000000000
    objectReference: {fileID: 0}
  - target: {fileID: 0}
    propertyPath: m_SpriteSheet.m_Sprites.Array.data[8].m_InternalID
    value: 5758291045540221379
    objectReference: {fileID: 0}
  - target: {fileID: 0}
    propertyPath: m_SpriteSheet.m_Sprites.Array.data[8].m_Vertices.Array.size
    value: 0
    objectReference: {fileID: 0}
  - target: {fileID: 0}
    propertyPath: m_SpriteSheet.m_Sprites.Array.data[8].m_Indices.Array.size
    value: 0
    objectReference: {fileID: 0}
  - target: {fileID: 0}
    propertyPath: m_SpriteSheet.m_Sprites.Array.data[8].m_Edges.Array.size
    value: 0
    objectReference: {fileID: 0}
  - target: {fileID: 0}
    propertyPath: m_SpriteSheet.m_Sprites.Array.data[8].m_Weights.Array.size
    value: 0
    objectReference: {fileID: 0}
  - target: {fileID: 0}
    propertyPath: m_SpriteSheet.m_Sprites.Array.data[9].m_Name
    value: b_spear_3
    objectReference: {fileID: 0}
  - target: {fileID: 0}
    propertyPath: m_SpriteSheet.m_Sprites.Array.data[9].m_Rect.x
    value: 288
    objectReference: {fileID: 0}
  - target: {fileID: 0}
    propertyPath: m_SpriteSheet.m_Sprites.Array.data[9].m_Rect.y
    value: 0
    objectReference: {fileID: 0}
  - target: {fileID: 0}
    propertyPath: m_SpriteSheet.m_Sprites.Array.data[9].m_Rect.width
    value: 96
    objectReference: {fileID: 0}
  - target: {fileID: 0}
    propertyPath: m_SpriteSheet.m_Sprites.Array.data[9].m_Rect.height
    value: 96
    objectReference: {fileID: 0}
  - target: {fileID: 0}
    propertyPath: m_SpriteSheet.m_Sprites.Array.data[9].m_Alignment
    value: 9
    objectReference: {fileID: 0}
  - target: {fileID: 0}
    propertyPath: m_SpriteSheet.m_Sprites.Array.data[9].m_Pivot.x
    value: 0.666
    objectReference: {fileID: 0}
  - target: {fileID: 0}
    propertyPath: m_SpriteSheet.m_Sprites.Array.data[9].m_Pivot.y
    value: 0.333
    objectReference: {fileID: 0}
  - target: {fileID: 0}
    propertyPath: m_SpriteSheet.m_Sprites.Array.data[9].m_Border.x
    value: 0
    objectReference: {fileID: 0}
  - target: {fileID: 0}
    propertyPath: m_SpriteSheet.m_Sprites.Array.data[9].m_Border.y
    value: 0
    objectReference: {fileID: 0}
  - target: {fileID: 0}
    propertyPath: m_SpriteSheet.m_Sprites.Array.data[9].m_Border.z
    value: 0
    objectReference: {fileID: 0}
  - target: {fileID: 0}
    propertyPath: m_SpriteSheet.m_Sprites.Array.data[9].m_Border.w
    value: 0
    objectReference: {fileID: 0}
  - target: {fileID: 0}
    propertyPath: m_SpriteSheet.m_Sprites.Array.data[9].m_Outline.Array.size
    value: 0
    objectReference: {fileID: 0}
  - target: {fileID: 0}
    propertyPath: m_SpriteSheet.m_Sprites.Array.data[9].m_PhysicsShape.Array.size
    value: 0
    objectReference: {fileID: 0}
  - target: {fileID: 0}
    propertyPath: m_SpriteSheet.m_Sprites.Array.data[9].m_TessellationDetail
    value: 0
    objectReference: {fileID: 0}
  - target: {fileID: 0}
    propertyPath: m_SpriteSheet.m_Sprites.Array.data[9].m_Bones.Array.size
    value: 0
    objectReference: {fileID: 0}
  - target: {fileID: 0}
    propertyPath: m_SpriteSheet.m_Sprites.Array.data[9].m_SpriteID
    value: b5afa002066b3b2a0800000000000000
    objectReference: {fileID: 0}
  - target: {fileID: 0}
    propertyPath: m_SpriteSheet.m_Sprites.Array.data[9].m_InternalID
    value: -6722829294763312549
    objectReference: {fileID: 0}
  - target: {fileID: 0}
    propertyPath: m_SpriteSheet.m_Sprites.Array.data[9].m_Vertices.Array.size
    value: 0
    objectReference: {fileID: 0}
  - target: {fileID: 0}
    propertyPath: m_SpriteSheet.m_Sprites.Array.data[9].m_Indices.Array.size
    value: 0
    objectReference: {fileID: 0}
  - target: {fileID: 0}
    propertyPath: m_SpriteSheet.m_Sprites.Array.data[9].m_Edges.Array.size
    value: 0
    objectReference: {fileID: 0}
  - target: {fileID: 0}
    propertyPath: m_SpriteSheet.m_Sprites.Array.data[9].m_Weights.Array.size
    value: 0
    objectReference: {fileID: 0}
  - target: {fileID: 0}
    propertyPath: m_SpriteSheet.m_Sprites.Array.data[10].m_Name
    value: b_spear_4
    objectReference: {fileID: 0}
  - target: {fileID: 0}
    propertyPath: m_SpriteSheet.m_Sprites.Array.data[10].m_Rect.x
    value: 384
    objectReference: {fileID: 0}
  - target: {fileID: 0}
    propertyPath: m_SpriteSheet.m_Sprites.Array.data[10].m_Rect.y
    value: 0
    objectReference: {fileID: 0}
  - target: {fileID: 0}
    propertyPath: m_SpriteSheet.m_Sprites.Array.data[10].m_Rect.width
    value: 96
    objectReference: {fileID: 0}
  - target: {fileID: 0}
    propertyPath: m_SpriteSheet.m_Sprites.Array.data[10].m_Rect.height
    value: 96
    objectReference: {fileID: 0}
  - target: {fileID: 0}
    propertyPath: m_SpriteSheet.m_Sprites.Array.data[10].m_Alignment
    value: 9
    objectReference: {fileID: 0}
  - target: {fileID: 0}
    propertyPath: m_SpriteSheet.m_Sprites.Array.data[10].m_Pivot.x
    value: 0.666
    objectReference: {fileID: 0}
  - target: {fileID: 0}
    propertyPath: m_SpriteSheet.m_Sprites.Array.data[10].m_Pivot.y
    value: 0.333
    objectReference: {fileID: 0}
  - target: {fileID: 0}
    propertyPath: m_SpriteSheet.m_Sprites.Array.data[10].m_Border.x
    value: 0
    objectReference: {fileID: 0}
  - target: {fileID: 0}
    propertyPath: m_SpriteSheet.m_Sprites.Array.data[10].m_Border.y
    value: 0
    objectReference: {fileID: 0}
  - target: {fileID: 0}
    propertyPath: m_SpriteSheet.m_Sprites.Array.data[10].m_Border.z
    value: 0
    objectReference: {fileID: 0}
  - target: {fileID: 0}
    propertyPath: m_SpriteSheet.m_Sprites.Array.data[10].m_Border.w
    value: 0
    objectReference: {fileID: 0}
  - target: {fileID: 0}
    propertyPath: m_SpriteSheet.m_Sprites.Array.data[10].m_Outline.Array.size
    value: 0
    objectReference: {fileID: 0}
  - target: {fileID: 0}
    propertyPath: m_SpriteSheet.m_Sprites.Array.data[10].m_PhysicsShape.Array.size
    value: 0
    objectReference: {fileID: 0}
  - target: {fileID: 0}
    propertyPath: m_SpriteSheet.m_Sprites.Array.data[10].m_TessellationDetail
    value: 0
    objectReference: {fileID: 0}
  - target: {fileID: 0}
    propertyPath: m_SpriteSheet.m_Sprites.Array.data[10].m_Bones.Array.size
    value: 0
    objectReference: {fileID: 0}
  - target: {fileID: 0}
    propertyPath: m_SpriteSheet.m_Sprites.Array.data[10].m_SpriteID
    value: 35702c5dcffd2fc10800000000000000
    objectReference: {fileID: 0}
  - target: {fileID: 0}
    propertyPath: m_SpriteSheet.m_Sprites.Array.data[10].m_InternalID
    value: 2085975854436976467
    objectReference: {fileID: 0}
  - target: {fileID: 0}
    propertyPath: m_SpriteSheet.m_Sprites.Array.data[10].m_Vertices.Array.size
    value: 0
    objectReference: {fileID: 0}
  - target: {fileID: 0}
    propertyPath: m_SpriteSheet.m_Sprites.Array.data[10].m_Indices.Array.size
    value: 0
    objectReference: {fileID: 0}
  - target: {fileID: 0}
    propertyPath: m_SpriteSheet.m_Sprites.Array.data[10].m_Edges.Array.size
    value: 0
    objectReference: {fileID: 0}
  - target: {fileID: 0}
    propertyPath: m_SpriteSheet.m_Sprites.Array.data[10].m_Weights.Array.size
    value: 0
    objectReference: {fileID: 0}
  - target: {fileID: 0}
    propertyPath: m_SpriteSheet.m_Sprites.Array.data[11].m_Name
    value: b_spear_5
    objectReference: {fileID: 0}
  - target: {fileID: 0}
    propertyPath: m_SpriteSheet.m_Sprites.Array.data[11].m_Rect.x
    value: 480
    objectReference: {fileID: 0}
  - target: {fileID: 0}
    propertyPath: m_SpriteSheet.m_Sprites.Array.data[11].m_Rect.y
    value: 0
    objectReference: {fileID: 0}
  - target: {fileID: 0}
    propertyPath: m_SpriteSheet.m_Sprites.Array.data[11].m_Rect.width
    value: 96
    objectReference: {fileID: 0}
  - target: {fileID: 0}
    propertyPath: m_SpriteSheet.m_Sprites.Array.data[11].m_Rect.height
    value: 96
    objectReference: {fileID: 0}
  - target: {fileID: 0}
    propertyPath: m_SpriteSheet.m_Sprites.Array.data[11].m_Alignment
    value: 9
    objectReference: {fileID: 0}
  - target: {fileID: 0}
    propertyPath: m_SpriteSheet.m_Sprites.Array.data[11].m_Pivot.x
    value: 0.666
    objectReference: {fileID: 0}
  - target: {fileID: 0}
    propertyPath: m_SpriteSheet.m_Sprites.Array.data[11].m_Pivot.y
    value: 0.333
    objectReference: {fileID: 0}
  - target: {fileID: 0}
    propertyPath: m_SpriteSheet.m_Sprites.Array.data[11].m_Border.x
    value: 0
    objectReference: {fileID: 0}
  - target: {fileID: 0}
    propertyPath: m_SpriteSheet.m_Sprites.Array.data[11].m_Border.y
    value: 0
    objectReference: {fileID: 0}
  - target: {fileID: 0}
    propertyPath: m_SpriteSheet.m_Sprites.Array.data[11].m_Border.z
    value: 0
    objectReference: {fileID: 0}
  - target: {fileID: 0}
    propertyPath: m_SpriteSheet.m_Sprites.Array.data[11].m_Border.w
    value: 0
    objectReference: {fileID: 0}
  - target: {fileID: 0}
    propertyPath: m_SpriteSheet.m_Sprites.Array.data[11].m_Outline.Array.size
    value: 0
    objectReference: {fileID: 0}
  - target: {fileID: 0}
    propertyPath: m_SpriteSheet.m_Sprites.Array.data[11].m_PhysicsShape.Array.size
    value: 0
    objectReference: {fileID: 0}
  - target: {fileID: 0}
    propertyPath: m_SpriteSheet.m_Sprites.Array.data[11].m_TessellationDetail
    value: 0
    objectReference: {fileID: 0}
  - target: {fileID: 0}
    propertyPath: m_SpriteSheet.m_Sprites.Array.data[11].m_Bones.Array.size
    value: 0
    objectReference: {fileID: 0}
  - target: {fileID: 0}
    propertyPath: m_SpriteSheet.m_Sprites.Array.data[11].m_SpriteID
    value: b454cb13b2b2d2460800000000000000
    objectReference: {fileID: 0}
  - target: {fileID: 0}
    propertyPath: m_SpriteSheet.m_Sprites.Array.data[11].m_InternalID
    value: 7218473242262783307
    objectReference: {fileID: 0}
  - target: {fileID: 0}
    propertyPath: m_SpriteSheet.m_Sprites.Array.data[11].m_Vertices.Array.size
    value: 0
    objectReference: {fileID: 0}
  - target: {fileID: 0}
    propertyPath: m_SpriteSheet.m_Sprites.Array.data[11].m_Indices.Array.size
    value: 0
    objectReference: {fileID: 0}
  - target: {fileID: 0}
    propertyPath: m_SpriteSheet.m_Sprites.Array.data[11].m_Edges.Array.size
    value: 0
    objectReference: {fileID: 0}
  - target: {fileID: 0}
    propertyPath: m_SpriteSheet.m_Sprites.Array.data[11].m_Weights.Array.size
    value: 0
    objectReference: {fileID: 0}
  - target: {fileID: 0}
    propertyPath: m_SpriteSheet.m_Outline.Array.size
    value: 0
    objectReference: {fileID: 0}
  - target: {fileID: 0}
    propertyPath: m_SpriteSheet.m_PhysicsShape.Array.size
    value: 0
    objectReference: {fileID: 0}
  - target: {fileID: 0}
    propertyPath: m_SpriteSheet.m_Bones.Array.size
    value: 0
    objectReference: {fileID: 0}
  - target: {fileID: 0}
    propertyPath: m_SpriteSheet.m_SpriteID
    value: 5e97eb03825dee720800000000000000
    objectReference: {fileID: 0}
  - target: {fileID: 0}
    propertyPath: m_SpriteSheet.m_InternalID
    value: 0
    objectReference: {fileID: 0}
  - target: {fileID: 0}
    propertyPath: m_SpriteSheet.m_Vertices.Array.size
    value: 0
    objectReference: {fileID: 0}
  - target: {fileID: 0}
    propertyPath: m_SpriteSheet.m_Indices.Array.size
    value: 0
    objectReference: {fileID: 0}
  - target: {fileID: 0}
    propertyPath: m_SpriteSheet.m_Edges.Array.size
    value: 0
    objectReference: {fileID: 0}
  - target: {fileID: 0}
    propertyPath: m_SpriteSheet.m_Weights.Array.size
    value: 0
    objectReference: {fileID: 0}
  - target: {fileID: 0}
    propertyPath: m_SpriteSheet.m_SecondaryTextures.Array.size
    value: 0
    objectReference: {fileID: 0}
  - target: {fileID: 0}
    propertyPath: m_SpritePackingTag
    value: 
    objectReference: {fileID: 0}
  - target: {fileID: 0}
    propertyPath: m_PSDRemoveMatte
    value: 0
    objectReference: {fileID: 0}
  - target: {fileID: 0}
    propertyPath: m_PSDShowRemoveMatteOption
    value: 0
    objectReference: {fileID: 0}
  - target: {fileID: 0}
    propertyPath: m_UserData
    value: 
    objectReference: {fileID: 0}
  - target: {fileID: 0}
    propertyPath: m_AssetBundleName
    value: 
    objectReference: {fileID: 0}
  - target: {fileID: 0}
    propertyPath: m_AssetBundleVariant
    value: 
    objectReference: {fileID: 0}
